%!PS-Adobe-2.0
%%Title: /home/piters/work/MC/PHOTOS-MCTESTER/PHOTOS-ORDERING/winhac-1.13-export/demo-W-PHOTOS-ORDERING/Qdiff_harder1.ps: ww
%%Creator: ROOT Version 3.10/00
%%CreationDate: Thu Oct  7 10:36:29 2004
%%EndComments
%%BeginProlog
/s {stroke} def /l {lineto} def /m {moveto} def /t {translate} def
/sw {stringwidth} def /r {rotate} def /rl {roll}  def /R {repeat} def
/d {rlineto} def /rm {rmoveto} def /gr {grestore} def /f {eofill} def
/c {setrgbcolor} def /lw {setlinewidth} def /sd {setdash} def
/cl {closepath} def /sf {scalefont setfont} def /black {0 setgray} def
/box {m dup 0 exch d exch 0 d 0 exch neg d cl} def
/NC{systemdict begin initclip end}def/C{NC box clip newpath}def
/bl {box s} def /bf {box f} def /Y { 0 exch d} def /X { 0 d} def 
/mp {newpath /y exch def /x exch def} def
/side {[w .77 mul w .23 mul] .385 w mul sd w 0 l currentpoint t -144 r} def
/mr {mp x y w2 0 360 arc} def /m24 {mr s} def /m20 {mr f} def
/mb {mp x y w2 add m w2 neg 0 d 0 w neg d w 0 d 0 w d cl} def
/mt {mp x y w2 add m w2 neg w neg d w 0 d cl} def
/m21 {mb f} def /m25 {mb s} def /m22 {mt f} def /m26{mt s} def
/m23 {mp x y w2 sub m w2 w d w neg 0 d cl f} def
/m27 {mp x y w2 add m w3 neg w2 neg d w3 w2 neg d w3 w2 d cl s} def
/m28 {mp x w2 sub y w2 sub w3 add m w3 0 d  0 w3 neg d w3 0 d 0 w3 d w3 0 d  0 w3 d w3 neg 0 d 0 w3 d w3 neg 0 d
 0 w3 neg d w3 neg 0 d cl s } def
/m29 {mp gsave x w2 sub y w2 add w3 sub m currentpoint t
 4 {side} repeat cl fill gr} def
/m30 {mp gsave x w2 sub y w2 add w3 sub m currentpoint t
 4 {side} repeat cl s gr} def
/m31 {mp x y w2 sub m 0 w d x w2 sub y m w 0 d x w2 sub y w2 add m w w neg d x w2 sub y w2
 sub m w w d s} def
/m2 {mp x y w2 sub m 0 w d x w2 sub y m w 0 d s} def
/m5 {mp x w2 sub y w2 sub m w w d x w2 sub y w2 add m w w neg d s} def
/reencdict 24 dict def /ReEncode {reencdict begin /nco&na exch def
/nfnam exch def /basefontname exch def /basefontdict basefontname findfont def
/newfont basefontdict maxlength dict def basefontdict {exch dup /FID ne
{dup /Encoding eq {exch dup length array copy newfont 3 1 roll put} {exch 
newfont 3 1 roll put} ifelse} {pop pop} ifelse } forall newfont
/FontName nfnam put nco&na aload pop nco&na length 2 idiv {newfont
/Encoding get 3 1 roll put} repeat nfnam newfont definefont pop end } def
/accvec [ 176 /agrave 181 /Agrave 190 /acircumflex 192 /Acircumflex
201 /adieresis 204 /Adieresis 209 /ccedilla 210 /Ccedilla 211 /eacute
212 /Eacute 213 /egrave 214 /Egrave 215 /ecircumflex 216 /Ecircumflex
217 /edieresis 218 /Edieresis 219 /icircumflex 220 /Icircumflex
221 /idieresis 222 /Idieresis 223 /ntilde 224 /Ntilde 226 /ocircumflex
228 /Ocircumflex 229 /odieresis 230 /Odieresis 231 /ucircumflex 236 /Ucircumflex
237 /udieresis 238 /Udieresis 239 /aring 242 /Aring 243 /ydieresis
244 /Ydieresis 246 /aacute 247 /Aacute 252 /ugrave 253 /Ugrave] def
/Times-Roman /Times-Roman accvec ReEncode
/Times-Italic /Times-Italic accvec ReEncode
/Times-Bold /Times-Bold accvec ReEncode
/Times-BoldItalic /Times-BoldItalic accvec ReEncode
/Helvetica /Helvetica accvec ReEncode
/Helvetica-Oblique /Helvetica-Oblique accvec ReEncode
/Helvetica-Bold /Helvetica-Bold accvec ReEncode
/Helvetica-BoldOblique /Helvetica-BoldOblique  accvec ReEncode
/Courier /Courier accvec ReEncode
/Courier-Oblique /Courier-Oblique accvec ReEncode
/Courier-Bold /Courier-Bold accvec ReEncode
/Courier-BoldOblique /Courier-BoldOblique accvec ReEncode
/oshow {gsave [] 0 sd true charpath stroke gr} def
/stwn { /fs exch def /fn exch def /text exch def fn findfont fs sf
 text sw pop xs add /xs exch def} def
/stwb { /fs exch def /fn exch def /nbas exch def /textf exch deftextf length /tlen exch def nbas tlen gt {/nbas tlendef} iffn findfont fs sf textf dup length nbas sub nbas getinterval sw
pop neg xs add /xs exch def} def
/accspe [ 65 /plusminus  66 /bar  67 /existential  68 /universal 
69 /exclam  70 /numbersign 71 /greater  72 /question  73 /integral 
74 /colon  75 /semicolon  76 /less  77 /bracketleft  78 /bracketright
79 /greaterequal 80 /braceleft 81 /braceright 82 /radical
83 /spade 84 /heart 85 /diamond 86 /club 87 /lessequal
88 /multiply 89 /percent 90 /infinity 48 /circlemultiply 49 /circleplus
50 /emptyset  51 /lozenge 52 /bullet 53 /arrowright 54 /arrowup
55 /arrowleft 56 /arrowdown 57 /arrowboth 48 /degree 44 /comma 43 /plus 45 /angle 42 /angleleft 47 /divide 61 /notequal 40 /equivalence 41 /second 97 /approxequal 98 /congruent 99 /perpendicular 100 /partialdiff 101 /florin 102 /intersection
 103 /union 104 /propersuperset 105 /reflexsuperset 106 /notsubset 107 /propersubset 108 /reflexsubset 109 /element 110 /notelement 111 /gradient 112 /logicaland 113 /logicalor 114 /arrowdblboth 115 /arrowdblleft 116 /arrowdblup 117 /arrowdblright
 118 /arrowdbldown 119 /ampersand 120 /omega1 121 /similar 122 /aleph ] def
/Symbol /Special accspe ReEncode
/Zone {/iy exch def /ix exch def  ix 1 sub  3144 mul  1 iy sub  2224
 mul t} def
%%EndProlog
%%BeginSetup
newpath  gsave  90 r 0 -594 t  28 20 t .25 .25 scale  gsave 
%%EndSetup
%%Page: number 1
 gsave  gsave 
 1 1 Zone
 gsave  0 0 t black [] 0 sd 3 lw 0.95 0.95 0.95 c 2905 2268 0 0 bf 1 1 1 c 0 0 m 2 2 d 2264 Y 2901 X 2 2 d -2905 X -2268 Y f 0.665 0.665 0.665 c 0 0 m 2 2 d 2901 X 2264 Y 2 2 d -2268 Y -2905 X f black 0.95 0.95 0.95 c 2893 2258 5 5 bf 1 1 1 c 5 5 m 2
 2 d 2254 Y 2889 X 2 2 d -2893 X -2258 Y f 0.665 0.665 0.665 c 5 5 m 2 2 d 2889 X 2254 Y 2 2 d -2258 Y -2893 X f black 0.95 0.95 0.95 c 2315 1807 294 230 bf 1 1 1 c 294 230 m 1 1 d 1805 Y 2313 X 1 1 d -2315 X -1807 Y f 0.665 0.665 0.665 c 294 230 m 1
 1 d 2313 X 1805 Y 1 1 d -1807 Y -2315 X f black 2315 1807 294 230 bl 0.95 0.95 0.95 c 2315 1807 294 230 bf 1 1 1 c 294 230 m 1 1 d 1805 Y 2313 X 1 1 d -2315 X -1807 Y f 0.665 0.665 0.665 c 294 230 m 1 1 d 2313 X 1805 Y 1 1 d -1807 Y -2315 X f black
 2315 1807 294 230 bl 1 1 1 c 0.8 0.8 0.8 c 19 15 2416 592 bf 20 15 1779 637 bf 19 15 1432 697 bf 19 15 2320 742 bf 19 15 1529 803 bf 20 15 1837 803 bf 19 15 1760 923 bf 20 15 1374 983 bf 19 15 1297 998 bf 20 16 2107 1028 bf 19 15 2185 1059 bf 20 15
 1567 1074 bf 19 15 1683 1089 bf 20 15 1644 1104 bf 19 15 2185 1104 bf 19 15 2069 1134 bf 19 15 1143 1149 bf 20 15 1702 1149 bf 19 15 2011 1149 bf 19 15 1143 1164 bf 19 15 1741 1164 bf 19 15 1220 1179 bf 20 15 1374 1179 bf 20 15 1451 1179 bf 19 15
 1722 1179 bf 19 15 2262 1179 bf 19 15 1355 1194 bf 19 15 2204 1194 bf 20 15 1316 1209 bf 19 15 1336 1209 bf 19 15 1741 1209 bf 20 15 1046 1224 bf 20 15 1316 1224 bf 19 15 1683 1224 bf 19 15 1722 1224 bf 19 15 2127 1224 bf 19 15 2223 1224 bf 20 15
 2242 1224 bf 20 15 853 1239 bf 20 15 1046 1239 bf 19 15 1278 1239 bf 19 15 1760 1239 bf 19 15 2185 1239 bf 19 15 2320 1239 bf 19 15 796 1254 bf 19 15 931 1254 bf 20 15 1046 1254 bf 20 15 1104 1254 bf 20 15 1316 1254 bf 19 15 1336 1254 bf 19 15 1355
 1254 bf 19 15 1413 1254 bf 19 15 1432 1254 bf 19 15 1162 1269 bf 19 15 1394 1269 bf 19 15 1529 1269 bf 19 15 1548 1269 bf 19 15 1760 1269 bf 19 15 1818 1269 bf 19 15 1876 1269 bf 19 15 2050 1269 bf 20 15 2242 1269 bf 19 15 641 1284 bf 19 15 815 1284
 bf 19 15 892 1284 bf 19 15 950 1284 bf 19 15 1027 1284 bf 19 15 1143 1284 bf 19 15 1162 1284 bf 19 15 1490 1284 bf 19 15 1606 1284 bf 19 15 1683 1284 bf 20 15 1779 1284 bf 19 15 1818 1284 bf 20 15 1914 1284 bf 20 15 2300 1284 bf 19 15 2474 1284 bf
 19 16 1259 1299 bf 19 16 1336 1299 bf 20 16 1451 1299 bf 19 16 1606 1299 bf 20 16 1644 1299 bf 19 16 1722 1299 bf 19 16 1799 1299 bf 19 16 1953 1299 bf 19 16 2320 1299 bf 19 15 834 1315 bf 20 15 853 1315 bf 19 15 931 1315 bf 19 15 1008 1315 bf 19 15
 1027 1315 bf 19 15 1124 1315 bf 19 15 1143 1315 bf 19 15 1162 1315 bf 19 15 1297 1315 bf 19 15 1529 1315 bf 19 15 1760 1315 bf 20 15 1972 1315 bf 20 15 2107 1315 bf 20 15 2300 1315 bf 19 15 2513 1315 bf 20 15 718 1330 bf 19 15 815 1330 bf 19 15 873
 1330 bf 19 15 1124 1330 bf 19 15 1143 1330 bf 19 15 1297 1330 bf 20 15 1374 1330 bf 19 15 1432 1330 bf 20 15 1451 1330 bf 20 15 1567 1330 bf 19 15 1587 1330 bf 20 15 1644 1330 bf 19 15 1683 1330 bf 20 15 1702 1330 bf 19 15 1722 1330 bf 20 15 1837
 1330 bf 20 15 2030 1330 bf 19 15 2185 1330 bf 19 15 2474 1330 bf 19 15 738 1345 bf 19 15 931 1345 bf 20 15 988 1345 bf 20 15 1046 1345 bf 19 15 1085 1345 bf 20 15 1104 1345 bf 19 15 1124 1345 bf 19 15 1201 1345 bf 20 15 1239 1345 bf 19 15 1297 1345
 bf 19 15 1413 1345 bf 19 15 1432 1345 bf 19 15 1490 1345 bf 19 15 1606 1345 bf 20 15 1779 1345 bf 19 15 1818 1345 bf 19 15 2050 1345 bf 20 15 2165 1345 bf 20 15 776 1360 bf 20 15 853 1360 bf 19 15 873 1360 bf 20 15 911 1360 bf 19 15 950 1360 bf 19
 15 1027 1360 bf 19 15 1066 1360 bf 20 15 1104 1360 bf 20 15 1239 1360 bf 19 15 1278 1360 bf 19 15 1355 1360 bf 19 15 1413 1360 bf 19 15 1490 1360 bf 20 15 1567 1360 bf 19 15 1587 1360 bf 19 15 1664 1360 bf 19 15 1683 1360 bf 20 15 1779 1360 bf 20 15
 1914 1360 bf 19 15 1934 1360 bf 19 15 1953 1360 bf 20 15 1972 1360 bf 19 15 2011 1360 bf 19 15 2069 1360 bf 19 15 2088 1360 bf 19 15 2281 1360 bf 19 15 2513 1360 bf 19 15 2532 1360 bf 19 15 506 1375 bf 20 15 583 1375 bf 19 15 699 1375 bf 19 15 796
 1375 bf 19 15 834 1375 bf 20 15 853 1375 bf 19 15 873 1375 bf 19 15 931 1375 bf 20 15 1046 1375 bf 19 15 1066 1375 bf 19 15 1143 1375 bf 20 15 1181 1375 bf 19 15 1220 1375 bf 19 15 1471 1375 bf 20 15 1509 1375 bf 19 15 1548 1375 bf 20 15 1567 1375
 bf 19 15 1625 1375 bf 20 15 1702 1375 bf 19 15 1760 1375 bf 20 15 1779 1375 bf 19 15 1799 1375 bf 19 15 1818 1375 bf 20 15 1837 1375 bf 19 15 1857 1375 bf 19 15 1876 1375 bf 20 15 1914 1375 bf 19 15 2050 1375 bf 19 15 2088 1375 bf 19 15 2127 1375 bf
 20 15 2165 1375 bf 19 15 2185 1375 bf 19 15 2281 1375 bf 19 15 2532 1375 bf 20 15 525 1390 bf 19 15 603 1390 bf 20 15 660 1390 bf 19 15 699 1390 bf 20 15 718 1390 bf 20 15 776 1390 bf 19 15 815 1390 bf 20 15 853 1390 bf 0.6 0.6 0.6 c 19 15 873 1390
 bf 0.8 0.8 0.8 c 19 15 931 1390 bf 20 15 1046 1390 bf 19 15 1085 1390 bf 20 15 1104 1390 bf 19 15 1124 1390 bf 20 15 1181 1390 bf 19 15 1220 1390 bf 19 15 1259 1390 bf 19 15 1336 1390 bf 19 15 1413 1390 bf 19 15 1432 1390 bf 20 15 1451 1390 bf 19 15
 1529 1390 bf 19 15 1548 1390 bf 19 15 1587 1390 bf 19 15 1625 1390 bf 20 15 1644 1390 bf 19 15 1683 1390 bf 20 15 1702 1390 bf 19 15 1722 1390 bf 20 15 1779 1390 bf 19 15 1799 1390 bf 19 15 1818 1390 bf 19 15 1857 1390 bf 20 15 1914 1390 bf 19 15
 1934 1390 bf 20 15 1972 1390 bf 19 15 2050 1390 bf 19 15 2185 1390 bf 19 15 2204 1390 bf 19 15 2339 1390 bf 19 15 2455 1390 bf 20 15 583 1405 bf 19 15 622 1405 bf 19 15 680 1405 bf 19 15 699 1405 bf 19 15 738 1405 bf 19 15 757 1405 bf 20 15 776 1405
 bf 19 15 796 1405 bf 19 15 892 1405 bf 0.6 0.6 0.6 c 20 15 911 1405 bf 0.8 0.8 0.8 c 19 15 931 1405 bf 19 15 969 1405 bf 20 15 1046 1405 bf 19 15 1066 1405 bf 20 15 1104 1405 bf 19 15 1124 1405 bf 0.6 0.6 0.6 c 19 15 1143 1405 bf 0.8 0.8 0.8 c 19 15
 1162 1405 bf 19 15 1201 1405 bf 19 15 1297 1405 bf 0.6 0.6 0.6 c 20 15 1316 1405 bf 0.8 0.8 0.8 c 19 15 1355 1405 bf 19 15 1394 1405 bf 19 15 1413 1405 bf 19 15 1432 1405 bf 20 15 1451 1405 bf 19 15 1471 1405 bf 20 15 1509 1405 bf 19 15 1548 1405 bf
 19 15 1587 1405 bf 19 15 1606 1405 bf 0.6 0.6 0.6 c 20 15 1644 1405 bf 0.8 0.8 0.8 c 19 15 1664 1405 bf 19 15 1683 1405 bf 19 15 1722 1405 bf 19 15 1760 1405 bf 20 15 1779 1405 bf 19 15 1876 1405 bf 20 15 1914 1405 bf 19 15 1934 1405 bf 19 15 1992
 1405 bf 19 15 2088 1405 bf 20 15 2300 1405 bf 19 15 2397 1405 bf 19 15 2455 1405 bf 20 15 2493 1405 bf 19 15 2513 1405 bf 19 15 2551 1405 bf 19 15 410 1420 bf 20 15 583 1420 bf 19 15 603 1420 bf 19 15 622 1420 bf 19 15 641 1420 bf 20 15 718 1420 bf
 19 15 738 1420 bf 20 15 776 1420 bf 19 15 815 1420 bf 19 15 873 1420 bf 20 15 911 1420 bf 0.6 0.6 0.6 c 19 15 950 1420 bf 0.8 0.8 0.8 c 19 15 969 1420 bf 0.6 0.6 0.6 c 19 15 1008 1420 bf 0.8 0.8 0.8 c 19 15 1027 1420 bf 20 15 1046 1420 bf 19 15 1066
 1420 bf 19 15 1085 1420 bf 0.6 0.6 0.6 c 20 15 1104 1420 bf 0.8 0.8 0.8 c 20 15 1181 1420 bf 19 15 1220 1420 bf 20 15 1239 1420 bf 19 15 1259 1420 bf 19 15 1278 1420 bf 20 15 1374 1420 bf 19 15 1394 1420 bf 19 15 1413 1420 bf 19 15 1432 1420 bf 19
 15 1471 1420 bf 19 15 1490 1420 bf 20 15 1509 1420 bf 19 15 1529 1420 bf 19 15 1548 1420 bf 20 15 1567 1420 bf 19 15 1606 1420 bf 19 15 1625 1420 bf 0.6 0.6 0.6 c 20 15 1644 1420 bf 19 15 1683 1420 bf 0.8 0.8 0.8 c 19 15 1722 1420 bf 19 15 1741 1420
 bf 19 15 1760 1420 bf 0.6 0.6 0.6 c 19 15 1799 1420 bf 0.8 0.8 0.8 c 20 15 1837 1420 bf 19 15 1857 1420 bf 0.6 0.6 0.6 c 19 15 1895 1420 bf 0.8 0.8 0.8 c 20 15 1914 1420 bf 19 15 1953 1420 bf 20 15 1972 1420 bf 19 15 2011 1420 bf 20 15 2030 1420 bf
 19 15 2050 1420 bf 19 15 2069 1420 bf 19 15 2088 1420 bf 19 15 2146 1420 bf 19 15 2204 1420 bf 19 15 2262 1420 bf 19 15 2320 1420 bf 19 15 2397 1420 bf 19 15 2416 1420 bf 19 15 429 1435 bf 19 15 468 1435 bf 20 15 525 1435 bf 19 15 564 1435 bf 20 15
 583 1435 bf 0.6 0.6 0.6 c 19 15 603 1435 bf 0.8 0.8 0.8 c 19 15 641 1435 bf 20 15 660 1435 bf 19 15 680 1435 bf 19 15 699 1435 bf 0.6 0.6 0.6 c 20 15 718 1435 bf 0.8 0.8 0.8 c 19 15 738 1435 bf 19 15 757 1435 bf 20 15 776 1435 bf 0.6 0.6 0.6 c 19 15
 796 1435 bf 19 15 815 1435 bf 0.8 0.8 0.8 c 19 15 834 1435 bf 19 15 873 1435 bf 0.6 0.6 0.6 c 19 15 892 1435 bf 20 15 911 1435 bf 0.8 0.8 0.8 c 19 15 931 1435 bf 19 15 950 1435 bf 20 15 988 1435 bf 0.3 0.3 0.3 c 20 15 1046 1435 bf 0.8 0.8 0.8 c 19
 15 1066 1435 bf 0.6 0.6 0.6 c 19 15 1085 1435 bf 0.3 0.3 0.3 c 20 15 1104 1435 bf 0.8 0.8 0.8 c 19 15 1124 1435 bf 19 15 1143 1435 bf 19 15 1162 1435 bf 20 15 1181 1435 bf 19 15 1201 1435 bf 0.6 0.6 0.6 c 19 15 1220 1435 bf 0.8 0.8 0.8 c 20 15 1239
 1435 bf 19 15 1259 1435 bf 19 15 1278 1435 bf 0.6 0.6 0.6 c 20 15 1316 1435 bf 19 15 1336 1435 bf 19 15 1355 1435 bf 0.8 0.8 0.8 c 20 15 1374 1435 bf 0.6 0.6 0.6 c 19 15 1394 1435 bf 0.8 0.8 0.8 c 19 15 1413 1435 bf 0.6 0.6 0.6 c 19 15 1432 1435 bf
 0.8 0.8 0.8 c 20 15 1451 1435 bf 19 15 1471 1435 bf 20 15 1509 1435 bf 0.6 0.6 0.6 c 19 15 1548 1435 bf 0.8 0.8 0.8 c 20 15 1567 1435 bf 0.6 0.6 0.6 c 19 15 1587 1435 bf 0.8 0.8 0.8 c 19 15 1606 1435 bf 19 15 1625 1435 bf 20 15 1644 1435 bf 19 15
 1664 1435 bf 0.6 0.6 0.6 c 19 15 1683 1435 bf 20 15 1702 1435 bf 19 15 1722 1435 bf 19 15 1741 1435 bf 0.8 0.8 0.8 c 19 15 1799 1435 bf 19 15 1818 1435 bf 20 15 1837 1435 bf 0.6 0.6 0.6 c 19 15 1857 1435 bf 0.8 0.8 0.8 c 19 15 1876 1435 bf 0.6 0.6
 0.6 c 19 15 1895 1435 bf 0.8 0.8 0.8 c 19 15 1934 1435 bf 19 15 1953 1435 bf 0.3 0.3 0.3 c 19 15 1992 1435 bf 0.6 0.6 0.6 c 20 15 2030 1435 bf 0.8 0.8 0.8 c 19 15 2050 1435 bf 19 15 2069 1435 bf 19 15 2146 1435 bf 19 15 2204 1435 bf 19 15 2223 1435
 bf 20 15 2242 1435 bf 19 15 2262 1435 bf 19 15 2281 1435 bf 19 15 2339 1435 bf 20 15 2358 1435 bf 19 15 2378 1435 bf 19 15 2397 1435 bf 19 15 2455 1435 bf 19 15 2513 1435 bf 19 15 410 1450 bf 19 15 429 1450 bf 0.6 0.6 0.6 c 19 15 468 1450 bf 19 15
 487 1450 bf 0.8 0.8 0.8 c 19 15 506 1450 bf 20 15 525 1450 bf 19 15 545 1450 bf 0.6 0.6 0.6 c 20 15 583 1450 bf 0.8 0.8 0.8 c 19 15 603 1450 bf 0.6 0.6 0.6 c 19 15 622 1450 bf 20 15 660 1450 bf 19 15 680 1450 bf 0.8 0.8 0.8 c 19 15 699 1450 bf 0.6
 0.6 0.6 c 20 15 718 1450 bf 0.8 0.8 0.8 c 19 15 738 1450 bf 19 15 757 1450 bf 20 15 776 1450 bf 19 15 796 1450 bf 19 15 815 1450 bf 0.6 0.6 0.6 c 19 15 834 1450 bf 0.8 0.8 0.8 c 20 15 853 1450 bf 0.6 0.6 0.6 c 19 15 873 1450 bf 0.8 0.8 0.8 c 19 15
 892 1450 bf 0.6 0.6 0.6 c 20 15 911 1450 bf 19 15 931 1450 bf 19 15 950 1450 bf 19 15 969 1450 bf 0.8 0.8 0.8 c 20 15 988 1450 bf 0.6 0.6 0.6 c 19 15 1008 1450 bf 19 15 1027 1450 bf 20 15 1046 1450 bf 19 15 1066 1450 bf 19 15 1085 1450 bf 20 15 1104
 1450 bf 19 15 1124 1450 bf 0.3 0.3 0.3 c 19 15 1162 1450 bf 0.6 0.6 0.6 c 20 15 1181 1450 bf 0.3 0.3 0.3 c 19 15 1201 1450 bf 0.6 0.6 0.6 c 19 15 1220 1450 bf 0.8 0.8 0.8 c 20 15 1239 1450 bf 0.6 0.6 0.6 c 19 15 1259 1450 bf 0.8 0.8 0.8 c 19 15 1278
 1450 bf 20 15 1316 1450 bf 0.3 0.3 0.3 c 19 15 1336 1450 bf 0.6 0.6 0.6 c 19 15 1355 1450 bf 0.8 0.8 0.8 c 20 15 1374 1450 bf 19 15 1394 1450 bf 0.6 0.6 0.6 c 19 15 1413 1450 bf 0.8 0.8 0.8 c 19 15 1432 1450 bf 0.6 0.6 0.6 c 20 15 1451 1450 bf 0.8
 0.8 0.8 c 19 15 1471 1450 bf 0.6 0.6 0.6 c 19 15 1490 1450 bf 0.8 0.8 0.8 c 20 15 1509 1450 bf 19 15 1529 1450 bf 19 15 1548 1450 bf 0.6 0.6 0.6 c 20 15 1567 1450 bf 0.8 0.8 0.8 c 19 15 1587 1450 bf 0.3 0.3 0.3 c 19 15 1606 1450 bf 0.8 0.8 0.8 c 19
 15 1625 1450 bf 20 15 1644 1450 bf 19 15 1664 1450 bf 0.6 0.6 0.6 c 19 15 1683 1450 bf 0.8 0.8 0.8 c 20 15 1702 1450 bf 0.6 0.6 0.6 c 19 15 1741 1450 bf 0.8 0.8 0.8 c 19 15 1760 1450 bf 20 15 1779 1450 bf 19 15 1799 1450 bf 19 15 1818 1450 bf 20 15
 1837 1450 bf 19 15 1857 1450 bf 0.3 0.3 0.3 c 19 15 1876 1450 bf 19 15 1895 1450 bf 0.8 0.8 0.8 c 19 15 1934 1450 bf 20 15 1972 1450 bf 19 15 1992 1450 bf 20 15 2030 1450 bf 19 15 2050 1450 bf 20 15 2165 1450 bf 0.6 0.6 0.6 c 19 15 2185 1450 bf 19
 15 2223 1450 bf 20 15 2242 1450 bf 0.8 0.8 0.8 c 19 15 2262 1450 bf 19 15 2281 1450 bf 19 15 2339 1450 bf 20 15 2358 1450 bf 19 15 2455 1450 bf 19 15 2513 1450 bf 19 15 2532 1450 bf 19 15 2551 1450 bf 19 15 371 1465 bf 20 15 390 1465 bf 19 15 410
 1465 bf 0.6 0.6 0.6 c 19 15 429 1465 bf 0.8 0.8 0.8 c 20 15 448 1465 bf 0.6 0.6 0.6 c 19 15 468 1465 bf 0.8 0.8 0.8 c 19 15 487 1465 bf 19 15 506 1465 bf 0.6 0.6 0.6 c 20 15 525 1465 bf 0.3 0.3 0.3 c 19 15 545 1465 bf 0.8 0.8 0.8 c 19 15 564 1465 bf
 0.6 0.6 0.6 c 20 15 583 1465 bf 0.8 0.8 0.8 c 19 15 603 1465 bf 0.3 0.3 0.3 c 19 15 622 1465 bf 0.8 0.78 0.67 c 19 15 641 1465 bf 0.3 0.3 0.3 c 20 15 660 1465 bf 19 15 680 1465 bf 19 15 699 1465 bf 20 15 718 1465 bf 0.6 0.6 0.6 c 19 15 738 1465 bf
 19 15 757 1465 bf 0.3 0.3 0.3 c 20 15 776 1465 bf 19 15 796 1465 bf 19 15 815 1465 bf 0.8 0.8 0.8 c 19 15 834 1465 bf 0.3 0.3 0.3 c 20 15 853 1465 bf 19 15 873 1465 bf 0.6 0.6 0.6 c 19 15 892 1465 bf 20 15 911 1465 bf 0.3 0.3 0.3 c 19 15 931 1465 bf
 19 15 950 1465 bf 0.6 0.6 0.6 c 19 15 969 1465 bf 0.8 0.78 0.67 c 20 15 988 1465 bf 0.8 0.8 0.8 c 19 15 1008 1465 bf 0.6 0.6 0.6 c 19 15 1027 1465 bf 0.3 0.3 0.3 c 20 15 1046 1465 bf 0.6 0.6 0.6 c 19 15 1066 1465 bf 0.8 0.78 0.67 c 19 15 1085 1465
 bf 0.3 0.3 0.3 c 20 15 1104 1465 bf 19 15 1124 1465 bf 19 15 1143 1465 bf 0.6 0.6 0.6 c 19 15 1162 1465 bf 0.3 0.3 0.3 c 20 15 1181 1465 bf 19 15 1201 1465 bf 19 15 1220 1465 bf 0.6 0.6 0.6 c 20 15 1239 1465 bf 19 15 1259 1465 bf 0.8 0.8 0.8 c 19 15
 1297 1465 bf 0.6 0.6 0.6 c 20 15 1316 1465 bf 0.8 0.8 0.8 c 19 15 1336 1465 bf 0.3 0.3 0.3 c 19 15 1355 1465 bf 20 15 1374 1465 bf 19 15 1394 1465 bf 0.6 0.6 0.6 c 19 15 1413 1465 bf 19 15 1432 1465 bf 0.8 0.8 0.8 c 20 15 1451 1465 bf 0.3 0.3 0.3 c
 19 15 1471 1465 bf 0.8 0.8 0.8 c 19 15 1490 1465 bf 0.6 0.6 0.6 c 20 15 1509 1465 bf 0.3 0.3 0.3 c 19 15 1529 1465 bf 19 15 1548 1465 bf 0.6 0.6 0.6 c 20 15 1567 1465 bf 0.3 0.3 0.3 c 19 15 1587 1465 bf 0.6 0.6 0.6 c 19 15 1606 1465 bf 0.8 0.8 0.8 c
 19 15 1625 1465 bf 20 15 1644 1465 bf 0.3 0.3 0.3 c 19 15 1664 1465 bf 19 15 1683 1465 bf 0.6 0.6 0.6 c 20 15 1702 1465 bf 19 15 1722 1465 bf 0.3 0.3 0.3 c 19 15 1741 1465 bf 0.8 0.8 0.8 c 19 15 1760 1465 bf 0.3 0.3 0.3 c 20 15 1779 1465 bf 0.6 0.6
 0.6 c 19 15 1799 1465 bf 0.3 0.3 0.3 c 19 15 1818 1465 bf 0.6 0.6 0.6 c 20 15 1837 1465 bf 0.3 0.3 0.3 c 19 15 1857 1465 bf 19 15 1876 1465 bf 0.6 0.6 0.6 c 19 15 1895 1465 bf 0.8 0.8 0.8 c 20 15 1914 1465 bf 0.6 0.6 0.6 c 19 15 1934 1465 bf 19 15
 1953 1465 bf 20 15 1972 1465 bf 0.3 0.3 0.3 c 19 15 1992 1465 bf 0.6 0.6 0.6 c 19 15 2011 1465 bf 0.8 0.8 0.8 c 20 15 2030 1465 bf 0.6 0.6 0.6 c 19 15 2050 1465 bf 0.3 0.3 0.3 c 19 15 2069 1465 bf 0.8 0.8 0.8 c 19 15 2088 1465 bf 19 15 2127 1465 bf
 0.6 0.6 0.6 c 19 15 2146 1465 bf 0.8 0.8 0.8 c 20 15 2165 1465 bf 0.6 0.6 0.6 c 19 15 2185 1465 bf 0.8 0.8 0.8 c 19 15 2204 1465 bf 0.6 0.6 0.6 c 19 15 2223 1465 bf 0.8 0.8 0.8 c 20 15 2242 1465 bf 0.6 0.6 0.6 c 19 15 2262 1465 bf 19 15 2281 1465 bf
 20 15 2300 1465 bf 0.8 0.8 0.8 c 19 15 2320 1465 bf 20 15 2358 1465 bf 19 15 2378 1465 bf 19 15 2397 1465 bf 19 15 2416 1465 bf 0.6 0.6 0.6 c 19 15 2455 1465 bf 0.8 0.8 0.8 c 19 15 2474 1465 bf 19 15 2513 1465 bf 0.6 0.6 0.6 c 19 15 352 1480 bf 0.8
 0.8 0.8 c 19 15 371 1480 bf 20 15 390 1480 bf 0.3 0.3 0.3 c 19 15 410 1480 bf 0.8 0.78 0.67 c 19 15 429 1480 bf 0.3 0.3 0.3 c 20 15 448 1480 bf 0.8 0.78 0.67 c 19 15 468 1480 bf 19 15 487 1480 bf 19 15 506 1480 bf 20 15 525 1480 bf 19 15 545 1480 bf
 0.3 0.3 0.3 c 19 15 564 1480 bf 0.8 0.78 0.67 c 20 15 583 1480 bf 19 15 603 1480 bf 19 15 622 1480 bf 19 15 641 1480 bf 0.3 0.3 0.3 c 20 15 660 1480 bf 0.8 0.78 0.67 c 19 15 680 1480 bf 19 15 699 1480 bf 0.3 0.3 0.3 c 20 15 718 1480 bf 0.6 0.6 0.6 c
 19 15 738 1480 bf 0.8 0.78 0.67 c 19 15 757 1480 bf 20 15 776 1480 bf 19 15 796 1480 bf 19 15 815 1480 bf 19 15 834 1480 bf 20 15 853 1480 bf 19 15 873 1480 bf 19 15 892 1480 bf 0.3 0.3 0.3 c 20 15 911 1480 bf 0.8 0.78 0.67 c 19 15 931 1480 bf 19 15
 950 1480 bf 0.73 0.71 0.64 c 19 15 969 1480 bf 0.8 0.78 0.67 c 20 15 988 1480 bf 0.3 0.3 0.3 c 19 15 1008 1480 bf 0.73 0.71 0.64 c 19 15 1027 1480 bf 0.8 0.78 0.67 c 20 15 1046 1480 bf 19 15 1066 1480 bf 0.3 0.3 0.3 c 19 15 1085 1480 bf 0.8 0.78
 0.67 c 20 15 1104 1480 bf 19 15 1124 1480 bf 19 15 1143 1480 bf 19 15 1162 1480 bf 20 15 1181 1480 bf 19 15 1201 1480 bf 19 15 1220 1480 bf 20 15 1239 1480 bf 0.3 0.3 0.3 c 19 15 1259 1480 bf 0.8 0.78 0.67 c 19 15 1278 1480 bf 0.6 0.6 0.6 c 19 15
 1297 1480 bf 0.8 0.78 0.67 c 20 15 1316 1480 bf 19 15 1336 1480 bf 19 15 1355 1480 bf 0.3 0.3 0.3 c 20 15 1374 1480 bf 0.8 0.78 0.67 c 19 15 1394 1480 bf 19 15 1413 1480 bf 19 15 1432 1480 bf 0.3 0.3 0.3 c 20 15 1451 1480 bf 0.73 0.71 0.64 c 19 15
 1471 1480 bf 0.8 0.78 0.67 c 19 15 1490 1480 bf 20 15 1509 1480 bf 19 15 1529 1480 bf 19 15 1548 1480 bf 20 15 1567 1480 bf 0.3 0.3 0.3 c 19 15 1587 1480 bf 19 15 1606 1480 bf 0.8 0.78 0.67 c 19 15 1625 1480 bf 0.3 0.3 0.3 c 20 15 1644 1480 bf 0.8
 0.78 0.67 c 19 15 1664 1480 bf 0.6 0.6 0.6 c 19 15 1683 1480 bf 0.3 0.3 0.3 c 20 15 1702 1480 bf 0.8 0.78 0.67 c 19 15 1722 1480 bf 19 15 1741 1480 bf 19 15 1760 1480 bf 0.6 0.6 0.6 c 20 15 1779 1480 bf 0.8 0.78 0.67 c 19 15 1799 1480 bf 0.3 0.3 0.3
 c 19 15 1818 1480 bf 0.6 0.6 0.6 c 20 15 1837 1480 bf 0.3 0.3 0.3 c 19 15 1857 1480 bf 19 15 1876 1480 bf 0.8 0.78 0.67 c 19 15 1895 1480 bf 0.3 0.3 0.3 c 20 15 1914 1480 bf 0.8 0.78 0.67 c 19 15 1934 1480 bf 19 15 1953 1480 bf 20 15 1972 1480 bf
 0.3 0.3 0.3 c 19 15 1992 1480 bf 19 15 2011 1480 bf 0.6 0.6 0.6 c 20 15 2030 1480 bf 0.3 0.3 0.3 c 19 15 2050 1480 bf 19 15 2069 1480 bf 19 15 2088 1480 bf 0.6 0.6 0.6 c 20 15 2107 1480 bf 0.3 0.3 0.3 c 19 15 2127 1480 bf 19 15 2146 1480 bf 0.8 0.8
 0.8 c 20 15 2165 1480 bf 19 15 2185 1480 bf 0.6 0.6 0.6 c 19 15 2204 1480 bf 19 15 2223 1480 bf 20 15 2242 1480 bf 0.3 0.3 0.3 c 19 15 2262 1480 bf 19 15 2281 1480 bf 0.6 0.6 0.6 c 20 15 2300 1480 bf 0.8 0.8 0.8 c 19 15 2320 1480 bf 19 15 2339 1480
 bf 20 15 2358 1480 bf 19 15 2378 1480 bf 19 15 2416 1480 bf 20 15 2435 1480 bf 19 15 2474 1480 bf 20 15 2493 1480 bf 19 15 2513 1480 bf 0.6 0.6 0.6 c 19 15 2532 1480 bf 0.3 0.3 0.3 c 20 15 313 1495 bf 0.8 0.78 0.67 c 19 15 333 1495 bf 0.72 0.64 0.61
 c 19 15 352 1495 bf 19 15 371 1495 bf 20 15 390 1495 bf 0.73 0.71 0.64 c 19 15 410 1495 bf 0.72 0.64 0.61 c 19 15 429 1495 bf 20 15 448 1495 bf 19 15 468 1495 bf 19 15 487 1495 bf 19 15 506 1495 bf 20 15 525 1495 bf 19 15 545 1495 bf 19 15 564 1495
 bf 20 15 583 1495 bf 19 15 603 1495 bf 19 15 622 1495 bf 19 15 641 1495 bf 20 15 660 1495 bf 19 15 680 1495 bf 19 15 699 1495 bf 20 15 718 1495 bf 19 15 738 1495 bf 19 15 757 1495 bf 20 15 776 1495 bf 19 15 796 1495 bf 19 15 815 1495 bf 19 15 834
 1495 bf 20 15 853 1495 bf 19 15 873 1495 bf 0.73 0.71 0.64 c 19 15 892 1495 bf 0.72 0.64 0.61 c 20 15 911 1495 bf 19 15 931 1495 bf 19 15 950 1495 bf 19 15 969 1495 bf 20 15 988 1495 bf 19 15 1008 1495 bf 0.73 0.71 0.64 c 19 15 1027 1495 bf 20 15
 1046 1495 bf 0.72 0.64 0.61 c 19 15 1066 1495 bf 19 15 1085 1495 bf 20 15 1104 1495 bf 0.73 0.71 0.64 c 19 15 1124 1495 bf 0.72 0.64 0.61 c 19 15 1143 1495 bf 19 15 1162 1495 bf 20 15 1181 1495 bf 19 15 1201 1495 bf 19 15 1220 1495 bf 20 15 1239
 1495 bf 0.73 0.71 0.64 c 19 15 1259 1495 bf 19 15 1278 1495 bf 0.72 0.64 0.61 c 19 15 1297 1495 bf 20 15 1316 1495 bf 0.73 0.71 0.64 c 19 15 1336 1495 bf 19 15 1355 1495 bf 20 15 1374 1495 bf 19 15 1394 1495 bf 19 15 1413 1495 bf 19 15 1432 1495 bf
 20 15 1451 1495 bf 0.72 0.64 0.61 c 19 15 1471 1495 bf 19 15 1490 1495 bf 0.73 0.71 0.64 c 20 15 1509 1495 bf 19 15 1529 1495 bf 19 15 1548 1495 bf 20 15 1567 1495 bf 19 15 1587 1495 bf 0.72 0.64 0.61 c 19 15 1606 1495 bf 0.73 0.71 0.64 c 19 15 1625
 1495 bf 0.72 0.64 0.61 c 20 15 1644 1495 bf 0.73 0.71 0.64 c 19 15 1664 1495 bf 19 15 1683 1495 bf 20 15 1702 1495 bf 19 15 1722 1495 bf 19 15 1741 1495 bf 19 15 1760 1495 bf 20 15 1779 1495 bf 19 15 1799 1495 bf 19 15 1818 1495 bf 0.8 0.78 0.67 c
 20 15 1837 1495 bf 0.73 0.71 0.64 c 19 15 1857 1495 bf 19 15 1876 1495 bf 19 15 1895 1495 bf 0.8 0.78 0.67 c 20 15 1914 1495 bf 19 15 1934 1495 bf 19 15 1953 1495 bf 0.73 0.71 0.64 c 20 15 1972 1495 bf 19 15 1992 1495 bf 0.8 0.78 0.67 c 19 15 2011
 1495 bf 20 15 2030 1495 bf 19 15 2050 1495 bf 19 15 2069 1495 bf 19 15 2088 1495 bf 0.73 0.71 0.64 c 20 15 2107 1495 bf 19 15 2127 1495 bf 0.8 0.78 0.67 c 19 15 2146 1495 bf 0.73 0.71 0.64 c 20 15 2165 1495 bf 0.8 0.78 0.67 c 19 15 2185 1495 bf 0.73
 0.71 0.64 c 19 15 2204 1495 bf 0.3 0.3 0.3 c 19 15 2223 1495 bf 0.8 0.78 0.67 c 20 15 2242 1495 bf 0.3 0.3 0.3 c 19 15 2262 1495 bf 0.8 0.78 0.67 c 19 15 2281 1495 bf 20 15 2300 1495 bf 0.3 0.3 0.3 c 19 15 2320 1495 bf 19 15 2339 1495 bf 20 15 2358
 1495 bf 0.8 0.78 0.67 c 19 15 2378 1495 bf 0.6 0.6 0.6 c 19 15 2397 1495 bf 0.3 0.3 0.3 c 19 15 2416 1495 bf 20 15 2435 1495 bf 19 15 2455 1495 bf 19 15 2474 1495 bf 0.8 0.8 0.8 c 20 15 2493 1495 bf 19 15 2513 1495 bf 0.3 0.3 0.3 c 19 15 2532 1495
 bf 0.8 0.8 0.8 c 19 15 2551 1495 bf 0.6 0.6 0.6 c 20 15 2570 1495 bf black 19 15 294 1510 bf 20 15 313 1510 bf 0 1 0 c 19 15 333 1510 bf 1 0 1 c 19 15 352 1510 bf 19 15 371 1510 bf 20 15 390 1510 bf 1 0 0 c 19 15 410 1510 bf 19 15 429 1510 bf 20 15
 448 1510 bf 19 15 468 1510 bf 19 15 487 1510 bf 19 15 506 1510 bf 20 15 525 1510 bf 0.58 0.41 0.44 c 19 15 545 1510 bf 19 15 564 1510 bf 20 15 583 1510 bf 19 15 603 1510 bf 19 15 622 1510 bf 19 15 641 1510 bf 20 15 660 1510 bf 19 15 680 1510 bf 19
 15 699 1510 bf 20 15 718 1510 bf 19 15 738 1510 bf 19 15 757 1510 bf 0.67 0.56 0.58 c 20 15 776 1510 bf 19 15 796 1510 bf 19 15 815 1510 bf 19 15 834 1510 bf 20 15 853 1510 bf 19 15 873 1510 bf 19 15 892 1510 bf 20 15 911 1510 bf 19 15 931 1510 bf
 19 15 950 1510 bf 19 15 969 1510 bf 20 15 988 1510 bf 19 15 1008 1510 bf 19 15 1027 1510 bf 20 15 1046 1510 bf 19 15 1066 1510 bf 19 15 1085 1510 bf 20 15 1104 1510 bf 19 15 1124 1510 bf 19 15 1143 1510 bf 0.74 0.62 0.51 c 19 15 1162 1510 bf 20 15
 1181 1510 bf 19 15 1201 1510 bf 19 15 1220 1510 bf 20 15 1239 1510 bf 19 15 1259 1510 bf 19 15 1278 1510 bf 19 15 1297 1510 bf 20 15 1316 1510 bf 19 15 1336 1510 bf 19 15 1355 1510 bf 20 15 1374 1510 bf 19 15 1394 1510 bf 19 15 1413 1510 bf 19 15
 1432 1510 bf 20 15 1451 1510 bf 19 15 1471 1510 bf 19 15 1490 1510 bf 20 15 1509 1510 bf 19 15 1529 1510 bf 19 15 1548 1510 bf 20 15 1567 1510 bf 19 15 1587 1510 bf 19 15 1606 1510 bf 19 15 1625 1510 bf 20 15 1644 1510 bf 19 15 1664 1510 bf 0.83
 0.81 0.53 c 19 15 1683 1510 bf 20 15 1702 1510 bf 19 15 1722 1510 bf 19 15 1741 1510 bf 19 15 1760 1510 bf 20 15 1779 1510 bf 19 15 1799 1510 bf 19 15 1818 1510 bf 20 15 1837 1510 bf 19 15 1857 1510 bf 19 15 1876 1510 bf 19 15 1895 1510 bf 20 15
 1914 1510 bf 19 15 1934 1510 bf 19 15 1953 1510 bf 20 15 1972 1510 bf 19 15 1992 1510 bf 19 15 2011 1510 bf 20 15 2030 1510 bf 19 15 2050 1510 bf 19 15 2069 1510 bf 19 15 2088 1510 bf 0.5 0.5 0.61 c 20 15 2107 1510 bf 19 15 2127 1510 bf 19 15 2146
 1510 bf 20 15 2165 1510 bf 19 15 2185 1510 bf 19 15 2204 1510 bf 19 15 2223 1510 bf 20 15 2242 1510 bf 19 15 2262 1510 bf 19 15 2281 1510 bf 20 15 2300 1510 bf 19 15 2320 1510 bf 19 15 2339 1510 bf 0.43 0.48 0.52 c 20 15 2358 1510 bf 19 15 2378 1510
 bf 19 15 2397 1510 bf 19 15 2416 1510 bf 20 15 2435 1510 bf 19 15 2455 1510 bf 19 15 2474 1510 bf 20 15 2493 1510 bf 0.48 0.56 0.6 c 19 15 2513 1510 bf 19 15 2532 1510 bf 19 15 2551 1510 bf 0.51 0.62 0.55 c 20 15 2570 1510 bf 0.52 0.76 0.64 c 19 15
 2590 1510 bf 0.8 0.8 0.8 c 19 15 294 1525 bf 20 15 313 1525 bf 20 15 988 1525 bf 19 15 1008 1525 bf 0.6 0.6 0.6 c 19 15 1027 1525 bf 0.8 0.8 0.8 c 20 15 1046 1525 bf 19 15 1066 1525 bf 0.3 0.3 0.3 c 19 15 1085 1525 bf 0.6 0.6 0.6 c 20 15 1104 1525
 bf 0.8 0.8 0.8 c 19 15 1124 1525 bf 0.3 0.3 0.3 c 19 15 1143 1525 bf 19 15 1162 1525 bf 0.8 0.78 0.67 c 20 15 1181 1525 bf 0.3 0.3 0.3 c 19 15 1201 1525 bf 19 15 1220 1525 bf 20 15 1239 1525 bf 19 15 1259 1525 bf 19 15 1278 1525 bf 0.8 0.78 0.67 c
 19 15 1297 1525 bf 0.3 0.3 0.3 c 20 15 1316 1525 bf 0.8 0.78 0.67 c 19 15 1336 1525 bf 0.6 0.6 0.6 c 19 15 1355 1525 bf 0.8 0.78 0.67 c 20 15 1374 1525 bf 19 15 1394 1525 bf 19 15 1413 1525 bf 19 15 1432 1525 bf 0.73 0.71 0.64 c 20 15 1451 1525 bf
 0.8 0.78 0.67 c 19 15 1471 1525 bf 19 15 1490 1525 bf 0.73 0.71 0.64 c 20 15 1509 1525 bf 0.8 0.78 0.67 c 19 15 1529 1525 bf 0.73 0.71 0.64 c 19 15 1548 1525 bf 0.8 0.78 0.67 c 20 15 1567 1525 bf 0.73 0.71 0.64 c 19 15 1587 1525 bf 0.8 0.78 0.67 c
 19 15 1606 1525 bf 0.73 0.71 0.64 c 19 15 1625 1525 bf 20 15 1644 1525 bf 0.8 0.78 0.67 c 19 15 1664 1525 bf 19 15 1683 1525 bf 0.73 0.71 0.64 c 20 15 1702 1525 bf 19 15 1722 1525 bf 19 15 1741 1525 bf 19 15 1760 1525 bf 20 15 1779 1525 bf 0.8 0.78
 0.67 c 19 15 1799 1525 bf 0.73 0.71 0.64 c 19 15 1818 1525 bf 20 15 1837 1525 bf 19 15 1857 1525 bf 19 15 1876 1525 bf 19 15 1895 1525 bf 20 15 1914 1525 bf 0.8 0.78 0.67 c 19 15 1934 1525 bf 19 15 1953 1525 bf 0.73 0.71 0.64 c 20 15 1972 1525 bf
 0.8 0.78 0.67 c 19 15 1992 1525 bf 0.73 0.71 0.64 c 19 15 2011 1525 bf 20 15 2030 1525 bf 19 15 2050 1525 bf 19 15 2069 1525 bf 19 15 2088 1525 bf 20 15 2107 1525 bf 0.8 0.78 0.67 c 19 15 2127 1525 bf 0.73 0.71 0.64 c 19 15 2146 1525 bf 20 15 2165
 1525 bf 19 15 2185 1525 bf 19 15 2204 1525 bf 19 15 2223 1525 bf 20 15 2242 1525 bf 19 15 2262 1525 bf 19 15 2281 1525 bf 0.8 0.78 0.67 c 20 15 2300 1525 bf 19 15 2320 1525 bf 19 15 2339 1525 bf 20 15 2358 1525 bf 0.73 0.71 0.64 c 19 15 2378 1525 bf
 0.8 0.78 0.67 c 19 15 2397 1525 bf 19 15 2416 1525 bf 0.3 0.3 0.3 c 20 15 2435 1525 bf 0.8 0.78 0.67 c 19 15 2455 1525 bf 0.3 0.3 0.3 c 19 15 2474 1525 bf 0.8 0.78 0.67 c 20 15 2493 1525 bf 19 15 2513 1525 bf 19 15 2532 1525 bf 0.6 0.6 0.6 c 19 15
 2551 1525 bf 0.3 0.3 0.3 c 20 15 2570 1525 bf 0.8 0.8 0.8 c 19 15 2590 1525 bf 19 15 294 1540 bf 20 15 313 1540 bf 19 15 506 1540 bf 19 15 1432 1540 bf 19 15 1471 1540 bf 20 15 1509 1540 bf 19 15 1548 1540 bf 20 15 1567 1540 bf 19 15 1625 1540 bf 20
 15 1644 1540 bf 19 15 1664 1540 bf 19 15 1683 1540 bf 20 15 1702 1540 bf 19 15 1722 1540 bf 0.6 0.6 0.6 c 19 15 1741 1540 bf 0.8 0.8 0.8 c 19 15 1760 1540 bf 0.6 0.6 0.6 c 20 15 1779 1540 bf 19 15 1799 1540 bf 0.8 0.8 0.8 c 19 15 1818 1540 bf 20 15
 1837 1540 bf 19 15 1857 1540 bf 19 15 1876 1540 bf 0.6 0.6 0.6 c 19 15 1895 1540 bf 0.8 0.8 0.8 c 20 15 1914 1540 bf 19 15 1934 1540 bf 0.6 0.6 0.6 c 19 15 1953 1540 bf 20 15 1972 1540 bf 0.8 0.8 0.8 c 19 15 1992 1540 bf 0.6 0.6 0.6 c 19 15 2011
 1540 bf 20 15 2030 1540 bf 0.8 0.8 0.8 c 19 15 2050 1540 bf 0.3 0.3 0.3 c 19 15 2069 1540 bf 0.6 0.6 0.6 c 19 15 2088 1540 bf 0.8 0.8 0.8 c 19 15 2127 1540 bf 0.8 0.78 0.67 c 19 15 2146 1540 bf 0.6 0.6 0.6 c 20 15 2165 1540 bf 0.3 0.3 0.3 c 19 15
 2185 1540 bf 0.8 0.8 0.8 c 19 15 2204 1540 bf 0.6 0.6 0.6 c 19 15 2223 1540 bf 20 15 2242 1540 bf 0.3 0.3 0.3 c 19 15 2262 1540 bf 0.6 0.6 0.6 c 19 15 2281 1540 bf 0.8 0.8 0.8 c 20 15 2300 1540 bf 19 15 2320 1540 bf 19 15 2339 1540 bf 0.6 0.6 0.6 c
 20 15 2358 1540 bf 0.8 0.8 0.8 c 19 15 2378 1540 bf 19 15 2397 1540 bf 0.6 0.6 0.6 c 19 15 2416 1540 bf 0.8 0.8 0.8 c 20 15 2435 1540 bf 0.6 0.6 0.6 c 19 15 2455 1540 bf 0.3 0.3 0.3 c 19 15 2474 1540 bf 0.6 0.6 0.6 c 20 15 2493 1540 bf 0.8 0.8 0.8 c
 19 15 2532 1540 bf 19 16 1490 1555 bf 20 16 1702 1555 bf 20 16 1837 1555 bf 19 16 1857 1555 bf 19 16 1876 1555 bf 19 16 1934 1555 bf 19 16 1953 1555 bf 20 16 1972 1555 bf 19 16 1992 1555 bf 19 16 2069 1555 bf 19 16 2088 1555 bf 0.6 0.6 0.6 c 20 16
 2107 1555 bf 0.8 0.8 0.8 c 19 16 2146 1555 bf 19 16 2185 1555 bf 19 16 2204 1555 bf 0.6 0.6 0.6 c 19 16 2223 1555 bf 0.8 0.8 0.8 c 20 16 2242 1555 bf 19 16 2281 1555 bf 20 16 2300 1555 bf 19 16 2339 1555 bf 19 16 2378 1555 bf 19 16 2397 1555 bf 19
 16 2416 1555 bf 19 16 2455 1555 bf 19 16 2474 1555 bf 20 16 2493 1555 bf 19 16 2532 1555 bf 19 15 1683 1571 bf 19 15 1953 1571 bf 20 15 2030 1571 bf 19 15 2069 1571 bf 19 15 2088 1571 bf 20 15 2107 1571 bf 19 15 2127 1571 bf 20 15 2165 1571 bf 19 15
 2185 1571 bf 20 15 2242 1571 bf 19 15 2281 1571 bf 19 15 2339 1571 bf 20 15 313 1586 bf 19 15 1953 1586 bf 19 15 2204 1586 bf 19 15 2088 1601 bf 20 15 2107 1601 bf 19 15 2262 1601 bf 19 15 2281 1601 bf 19 15 2416 1601 bf 19 15 2185 1616 bf 20 15
 2435 1616 bf 19 15 468 1631 bf 19 15 371 1842 bf 1 1 1 c black 294 230 m 2315 X s
 gsave  2541 59
 t 0 r 0 0 m /Helvetica-Bold findfont 84.2425 sf 0 0 m (Q) show  gr  294 285 m -55 Y s 340 258 m -28 Y s 387 258 m -28 Y s 433 258 m -28 Y s 479 258 m -28 Y s 525 285 m -55 Y s 572 258 m -28 Y s 618 258 m -28 Y s 664 258 m -28 Y s 711 258 m -28 Y s
 757 285 m -55 Y s 803 258 m -28 Y s 850 258 m -28 Y s 896 258 m -28 Y s 942 258 m -28 Y s 988 285 m -55 Y s 1035 258 m -28 Y s 1081 258 m -28 Y s 1127 258 m -28 Y s 1174 258 m -28 Y s 1220 285 m -55 Y s 1266 258 m -28 Y s 1313 258 m -28 Y s 1359 258
 m -28 Y s 1405 258 m -28 Y s 1451 285 m -55 Y s 1498 258 m -28 Y s 1544 258 m -28 Y s 1590 258 m -28 Y s 1637 258 m -28 Y s 1683 285 m -55 Y s 1729 258 m -28 Y s 1776 258 m -28 Y s 1822 258 m -28 Y s 1868 258 m -28 Y s 1914 285 m -55 Y s 1961 258 m
 -28 Y s 2007 258 m -28 Y s 2053 258 m -28 Y s 2100 258 m -28 Y s 2146 285 m -55 Y s 2192 258 m -28 Y s 2239 258 m -28 Y s 2285 258 m -28 Y s 2331 258 m -28 Y s 2378 285 m -55 Y s 2424 258 m -28 Y s 2470 258 m -28 Y s 2516 258 m -28 Y s 2563 258 m
 -28 Y s 2609 285 m -55 Y s
 gsave  271 148
 t 0 r 0 0 m /Helvetica-Bold findfont 84.2425 sf 0 0 m (0) show  gr 
 gsave  471 148
 t 0 r 0 0 m /Helvetica-Bold findfont 84.2425 sf 0 0 m (0.1) show  gr 
 gsave  699 148
 t 0 r 0 0 m /Helvetica-Bold findfont 84.2425 sf 0 0 m (0.2) show  gr 
 gsave  931 148
 t 0 r 0 0 m /Helvetica-Bold findfont 84.2425 sf 0 0 m (0.3) show  gr 
 gsave  1159 148
 t 0 r 0 0 m /Helvetica-Bold findfont 84.2425 sf 0 0 m (0.4) show  gr 
 gsave  1391 148
 t 0 r 0 0 m /Helvetica-Bold findfont 84.2425 sf 0 0 m (0.5) show  gr 
 gsave  1623 148
 t 0 r 0 0 m /Helvetica-Bold findfont 84.2425 sf 0 0 m (0.6) show  gr 
 gsave  1856 148
 t 0 r 0 0 m /Helvetica-Bold findfont 84.2425 sf 0 0 m (0.7) show  gr 
 gsave  2088 148
 t 0 r 0 0 m /Helvetica-Bold findfont 84.2425 sf 0 0 m (0.8) show  gr 
 gsave  2320 148
 t 0 r 0 0 m /Helvetica-Bold findfont 84.2425 sf 0 0 m (0.9) show  gr 
 gsave  2589 148
 t 0 r 0 0 m /Helvetica-Bold findfont 84.2425 sf 0 0 m (1) show  gr  294 230 m 1807 Y s
 gsave  150 1865
 t 90 r 0 0 m /Helvetica-Bold findfont 56.9206 sf 0 0 m (before) show  gr 
 gsave  123 1771
 t 90 r 0 0 m /Helvetica-Bold findfont 84.2425 sf 0 0 m (-Q) show  gr 
 gsave  150 1646
 t 90 r 0 0 m /Helvetica-Bold findfont 56.9206 sf 0 0 m (after) show  gr 
 gsave  123 1580
 t 90 r 0 0 m /Helvetica-Bold findfont 84.2425 sf 0 0 m (Q) show  gr  363 230 m -69 X s 329 282 m -35 X s 329 334 m -35 X s 329 385 m -35 X s 329 437 m -35 X s 363 489 m -69 X s 329 540 m -35 X s 329 592 m -35 X s 329 643 m -35 X s 329 695 m -35 X s
 363 747 m -69 X s 329 798 m -35 X s 329 850 m -35 X s 329 902 m -35 X s 329 953 m -35 X s 363 1005 m -69 X s 329 1056 m -35 X s 329 1108 m -35 X s 329 1160 m -35 X s 329 1211 m -35 X s 363 1263 m -69 X s 329 1315 m -35 X s 329 1366 m -35 X s 329
 1418 m -35 X s 329 1469 m -35 X s 363 1521 m -69 X s 329 1573 m -35 X s 329 1624 m -35 X s 329 1676 m -35 X s 329 1728 m -35 X s 363 1779 m -69 X s 329 1831 m -35 X s 329 1882 m -35 X s 329 1934 m -35 X s 329 1986 m -35 X s 363 2037 m -69 X s
 gsave  134 207
 t 0 r 0 0 m /Helvetica-Bold findfont 84.2425 sf 0 0 m (-0.5) show  gr 
 gsave  134 464
 t 0 r 0 0 m /Helvetica-Bold findfont 84.2425 sf 0 0 m (-0.4) show  gr 
 gsave  134 722
 t 0 r 0 0 m /Helvetica-Bold findfont 84.2425 sf 0 0 m (-0.3) show  gr 
 gsave  137 981
 t 0 r 0 0 m /Helvetica-Bold findfont 84.2425 sf 0 0 m (-0.2) show  gr 
 gsave  146 1239
 t 0 r 0 0 m /Helvetica-Bold findfont 84.2425 sf 0 0 m (-0.1) show  gr 
 gsave  205 1498
 t 0 r 0 0 m /Helvetica-Bold findfont 84.2425 sf 0 0 m (-0) show  gr 
 gsave  173 1755
 t 0 r 0 0 m /Helvetica-Bold findfont 84.2425 sf 0 0 m (0.1) show  gr 
 gsave  164 2013
 t 0 r 0 0 m /Helvetica-Bold findfont 84.2425 sf 0 0 m (0.2) show  gr  0.95 0.95 0.95 c 1188 113 33 2139 bf black 40 2139 m -5 Y 1185 X 111 Y -4 X -106 Y f 33 2139 m 113 Y 1188 X -113 Y -1188 X cl s 1 1 1 c black
 gsave  143 2163
 t 0 r 0 0 m /Helvetica-Bold findfont 88.7961 sf 0 0 m (More Energetic photon) show  gr  gr 
showpage
 gr 
%%Trailer
%%Pages:  1
 gr  gr  gr 
%%EOF
