%!PS-Adobe-2.0 EPSF-2.0
%%BoundingBox:  0 0 567 354
%%Title: ./booklet/Z0.TO.pi-.pi+.nu@tau..nu@tau./M1@0001.eps: Comparison of Mass(1) of pi- pi+ in channel Z0 => pi- pi+ nu_tau~ nu_tau 
%%Creator: ROOT Version 5.18/00b
%%CreationDate: Tue Apr 14 12:23:15 2009
%%EndComments
%%BeginProlog
80 dict begin
/s {stroke} def /l {lineto} def /m {moveto} def /t {translate} def
/sw {stringwidth} def /r {rotate} def /rl {roll}  def /R {repeat} def
/d {rlineto} def /rm {rmoveto} def /gr {grestore} def /f {eofill} def
/c {setrgbcolor} def /black {0 setgray} def /sd {setdash} def
/cl {closepath} def /sf {scalefont setfont} def /lw {setlinewidth} def
/box {m dup 0 exch d exch 0 d 0 exch neg d cl} def
/NC{systemdict begin initclip end}def/C{NC box clip newpath}def
/bl {box s} def /bf {box f} def /Y { 0 exch d} def /X { 0 d} def 
/mp {newpath /y exch def /x exch def} def
/side {[w .77 mul w .23 mul] .385 w mul sd w 0 l currentpoint t -144 r} def
/mr {mp x y w2 0 360 arc} def /m24 {mr s} def /m20 {mr f} def
/mb {mp x y w2 add m w2 neg 0 d 0 w neg d w 0 d 0 w d cl} def
/mt {mp x y w2 add m w2 neg w neg d w 0 d cl} def
/m21 {mb f} def /m25 {mb s} def /m22 {mt f} def /m26{mt s} def
/m23 {mp x y w2 sub m w2 w d w neg 0 d cl f} def
/m27 {mp x y w2 add m w3 neg w2 neg d w3 w2 neg d w3 w2 d cl s} def
/m28 {mp x w2 sub y w2 sub w3 add m w3 0 d  0 w3 neg d w3 0 d 0 w3 d w3 0 d  0 w3 d w3 neg 0 d 0 w3 d w3 neg 0 d
 0 w3 neg d w3 neg 0 d cl s } def
/m29 {mp gsave x w2 sub y w2 add w3 sub m currentpoint t
 4 {side} repeat cl fill gr} def
/m30 {mp gsave x w2 sub y w2 add w3 sub m currentpoint t
 4 {side} repeat cl s gr} def
/m31 {mp x y w2 sub m 0 w d x w2 sub y m w 0 d x w2 sub y w2 add m w w neg d x w2 sub y w2
 sub m w w d s} def
/m2 {mp x y w2 sub m 0 w d x w2 sub y m w 0 d s} def
/m5 {mp x w2 sub y w2 sub m w w d x w2 sub y w2 add m w w neg d s} def
/reencdict 24 dict def /ReEncode {reencdict begin /nco&na exch def
/nfnam exch def /basefontname exch def /basefontdict basefontname findfont def
/newfont basefontdict maxlength dict def basefontdict {exch dup /FID ne
{dup /Encoding eq {exch dup length array copy newfont 3 1 roll put} {exch 
newfont 3 1 roll put} ifelse} {pop pop} ifelse } forall newfont
/FontName nfnam put nco&na aload pop nco&na length 2 idiv {newfont
/Encoding get 3 1 roll put} repeat nfnam newfont definefont pop end } def
/accvec [ 176 /agrave 181 /Agrave 190 /acircumflex 192 /Acircumflex
201 /adieresis 204 /Adieresis 209 /ccedilla 210 /Ccedilla 211 /eacute
212 /Eacute 213 /egrave 214 /Egrave 215 /ecircumflex 216 /Ecircumflex
217 /edieresis 218 /Edieresis 219 /icircumflex 220 /Icircumflex
221 /idieresis 222 /Idieresis 223 /ntilde 224 /Ntilde 226 /ocircumflex
228 /Ocircumflex 230 /Odieresis 231 /ucircumflex 236 /Ucircumflex
237 /udieresis 238 /Udieresis 239 /aring 240 /odieresis 242 /Aring 243 /ydieresis
244 /Ydieresis 246 /aacute 247 /Aacute 252 /ugrave 253 /Ugrave
127 /atilde 128 /Atilde 129 /oacute 130 /Oacute 131 /iacute
132 /Iacute 133 /igrave 134 /Igrave 135 /otilde 136 /Otilde
137 /uacute 138 /Uacute] def
/Times-Roman /Times-Roman accvec ReEncode
/Times-Italic /Times-Italic accvec ReEncode
/Times-Bold /Times-Bold accvec ReEncode
/Times-BoldItalic /Times-BoldItalic accvec ReEncode
/Helvetica /Helvetica accvec ReEncode
/Helvetica-Oblique /Helvetica-Oblique accvec ReEncode
/Helvetica-Bold /Helvetica-Bold accvec ReEncode
/Helvetica-BoldOblique /Helvetica-BoldOblique  accvec ReEncode
/Courier /Courier accvec ReEncode
/Courier-Oblique /Courier-Oblique accvec ReEncode
/Courier-Bold /Courier-Bold accvec ReEncode
/Courier-BoldOblique /Courier-BoldOblique accvec ReEncode
/oshow {gsave [] 0 sd true charpath stroke gr} def
/stwn { /fs exch def /fn exch def /text exch def fn findfont fs sf
 text sw pop xs add /xs exch def} def
/stwb { /fs exch def /fn exch def /nbas exch def /textf exch deftextf length /tlen exch def nbas tlen gt {/nbas tlendef} iffn findfont fs sf textf dup length nbas sub nbas getinterval sw
pop neg xs add /xs exch def} def
/accspe [ 65 /plusminus  66 /bar  67 /existential  68 /universal 
69 /exclam  70 /numbersign 71 /greater  72 /question  73 /integral 
74 /colon  75 /semicolon  76 /less  77 /bracketleft  78 /bracketright
79 /greaterequal 80 /braceleft 81 /braceright 82 /radical
83 /spade 84 /heart 85 /diamond 86 /club 87 /lessequal
88 /multiply 89 /percent 90 /infinity 48 /circlemultiply 49 /circleplus
50 /emptyset  51 /lozenge 52 /bullet 53 /arrowright 54 /arrowup
55 /arrowleft 56 /arrowdown 57 /arrowboth 48 /degree 44 /comma 43 /plus 45 /angle 42 /angleleft 47 /divide 61 /notequal 40 /equivalence 41 /second 97 /approxequal 98 /congruent 99 /perpendicular 100 /partialdiff 101 /florin 102 /intersection
 103 /union 104 /propersuperset 105 /reflexsuperset 106 /notsubset 107 /propersubset 108 /reflexsubset 109 /element 110 /notelement 111 /gradient 112 /logicaland 113 /logicalor 114 /arrowdblboth 115 /arrowdblleft 116 /arrowdblup 117 /arrowdblright
 118 /arrowdbldown 119 /ampersand 120 /omega1 121 /similar 122 /aleph ] def
/Symbol /Special accspe ReEncode
%%EndProlog
%%BeginSetup
%%EndSetup
newpath  gsave  .25 .25 scale  gsave  0 0 t black[  ] 0 sd 3 lw 0.999 0.999 0.999 c 2268 1415 0 0 bf black 0.999 0.999 0.999 c 1814 1132 227 142 bf black 1814 1132 227 142 bl 1 1 1 c black 227 530 m 30 X 11 Y 30 X 38 Y 30 X 74 Y 31 X 87 Y 30 X 49 Y
 30 X 29 Y 30 X 21 Y 31 X 30 Y 30 X 17 Y 30 X 25 Y 30 X 32 Y 31 X 28 Y 30 X 11 Y 30 X 38 Y 30 X 20 Y 31 X 38 Y 30 X 19 Y 30 X 24 Y 30 X 32 Y 30 X -4 Y 31 X 35 Y 30 X 8 Y 30 X 2 Y 30 X 11 Y 31 X 12 Y 30 X -13 Y 30 X 9 Y 30 X 7 Y 31 X -24 Y 30 X -15 Y
 30 X 9 Y 30 X -41 Y 31 X -4 Y 30 X -19 Y 30 X -46 Y 61 X -24 Y 30 X -27 Y 30 X -44 Y 30 X -14 Y 30 X -21 Y 31 X -29 Y 30 X -33 Y 30 X -3 Y 30 X -42 Y 31 X -8 Y 30 X -35 Y 30 X -19 Y 30 X -34 Y 31 X -11 Y 30 X -23 Y 30 X -17 Y 30 X -26 Y 31 X 41 Y
 30 X -569 Y 151 X s 227 142 m 1814 X s 227 176 m -34 Y s 309 159 m -17 Y s 392 159 m -17 Y s 474 159 m -17 Y s 557 176 m -34 Y s 639 159 m -17 Y s 722 159 m -17 Y s 804 159 m -17 Y s 886 176 m -34 Y s 969 159 m -17 Y s 1051 159 m -17 Y s 1134 159 m
 -17 Y s 1216 176 m -34 Y s 1299 159 m -17 Y s 1381 159 m -17 Y s 1464 159 m -17 Y s 1546 176 m -34 Y s 1629 159 m -17 Y s 1711 159 m -17 Y s 1794 159 m -17 Y s 1876 176 m -34 Y s 1876 176 m -34 Y s 1958 159 m -17 Y s
 gsave  2268 1415 0 0 C 209 91 t 0 r /Helvetica-Bold findfont 53.2685 sf 0 0 m (0) show NC gr 
 gsave  2268 1415 0 0 C 517 91 t 0 r /Helvetica-Bold findfont 53.2685 sf 0 0 m (0.2) show NC gr 
 gsave  2268 1415 0 0 C 845 91 t 0 r /Helvetica-Bold findfont 53.2685 sf 0 0 m (0.4) show NC gr 
 gsave  2268 1415 0 0 C 1176 91 t 0 r /Helvetica-Bold findfont 53.2685 sf 0 0 m (0.6) show NC gr 
 gsave  2268 1415 0 0 C 1507 91 t 0 r /Helvetica-Bold findfont 53.2685 sf 0 0 m (0.8) show NC gr 
 gsave  2268 1415 0 0 C 1864 91 t 0 r /Helvetica-Bold findfont 53.2685 sf 0 0 m (1) show NC gr  227 142 m 1132 Y s 281 142 m -54 X s 254 185 m -27 X s 254 228 m -27 X s 254 271 m -27 X s 281 314 m -54 X s 254 357 m -27 X s 254 401 m -27 X s 254 444
 m -27 X s 281 487 m -54 X s 254 530 m -27 X s 254 573 m -27 X s 254 617 m -27 X s 281 660 m -54 X s 254 703 m -27 X s 254 746 m -27 X s 254 789 m -27 X s 281 832 m -54 X s 254 876 m -27 X s 254 919 m -27 X s 254 962 m -27 X s 281 1005 m -54 X s 254
 1048 m -27 X s 254 1091 m -27 X s 254 1135 m -27 X s 281 1178 m -54 X s 281 1178 m -54 X s 254 1221 m -27 X s 254 1264 m -27 X s
 gsave  2268 1415 0 0 C 183 122 t 0 r /Helvetica-Bold findfont 53.2685 sf 0 0 m (0) show NC gr 
 gsave  2268 1415 0 0 C 141 293 t 0 r /Helvetica-Bold findfont 53.2685 sf 0 0 m (0.2) show NC gr 
 gsave  2268 1415 0 0 C 141 464 t 0 r /Helvetica-Bold findfont 53.2685 sf 0 0 m (0.4) show NC gr 
 gsave  2268 1415 0 0 C 141 639 t 0 r /Helvetica-Bold findfont 53.2685 sf 0 0 m (0.6) show NC gr 
 gsave  2268 1415 0 0 C 137 810 t 0 r /Helvetica-Bold findfont 53.2685 sf 0 0 m (0.8) show NC gr 
 gsave  2268 1415 0 0 C 190 985 t 0 r /Helvetica-Bold findfont 53.2685 sf 0 0 m (1) show NC gr 
 gsave  2268 1415 0 0 C 141 1153 t 0 r /Helvetica-Bold findfont 53.2685 sf 0 0 m (1.2) show NC gr  1 1 1 c 1587 77 23 1331 bf black 23 1331 m 1587 X s 1610 1331 m 77 Y s 1610 1408 m -1587 X s 23 1408 m -77 Y s 1 1 1 c black
 gsave  2268 1415 0 0 C 84 1355 t 0 r /Helvetica-Bold findfont 41.8538 sf 0 0 m (Comparison of Mass\(1\) of pi- pi+ in channel Z0 => pi- pi+ nu_tau~ nu_tau ) show NC gr  1 0 0 c 1 1 1 c black 1 0 0 c 227 157 m 30 X 95 Y 30 X 131 Y 30 X 162 Y 31 X
 140 Y 30 X 87 Y 30 X 52 Y 30 X 45 Y 31 X 48 Y 30 X 32 Y 30 X 35 Y 30 X 31 Y 31 X 17 Y 30 X 14 Y 30 X 27 Y 30 X 10 Y 31 X 22 Y 30 X -2 Y 30 X 7 Y 30 X 12 Y 30 X -9 Y 31 X 4 Y 30 X 1 Y 30 X -7 Y 30 X -12 Y 31 X -8 Y 30 X -19 Y 30 X -13 Y 30 X -6 Y 31
 X -35 Y 30 X -14 Y 30 X -12 Y 30 X -26 Y 31 X -34 Y 30 X -24 Y 30 X -36 Y 30 X -13 Y 31 X -32 Y 30 X -34 Y 30 X -36 Y 30 X -31 Y 30 X -41 Y 31 X -29 Y 30 X -36 Y 30 X -38 Y 30 X -40 Y 31 X -40 Y 30 X -47 Y 30 X -38 Y 30 X -44 Y 31 X -46 Y 30 X -43
 Y 30 X -46 Y 30 X -48 Y 31 X -42 Y 30 X -6 Y 151 X s 0 1 0 c 1 1 1 c black 0 1 0 c 227 177 m 30 X 204 Y 30 X 237 Y 30 X 205 Y 31 X 103 Y 30 X 57 Y 30 X 30 Y 30 X 30 Y 31 X 19 Y 30 X 16 Y 30 X 9 Y 30 X -4 Y 31 X -14 Y 30 X 3 Y 30 X -15 Y 30 X -10 Y
 31 X -17 Y 30 X -20 Y 30 X -14 Y 30 X -17 Y 30 X -5 Y 31 X -24 Y 30 X -5 Y 30 X -8 Y 30 X -18 Y 31 X -15 Y 30 X -6 Y 30 X -17 Y 30 X -10 Y 31 X -12 Y 30 X -1 Y 30 X -15 Y 30 X 6 Y 31 X -27 Y 30 X -9 Y 30 X 1 Y 30 X -12 Y 31 X -13 Y 30 X -13 Y 30 X
 -5 Y 30 X -21 Y 30 X -28 Y 31 X -11 Y 30 X -16 Y 30 X -42 Y 30 X -18 Y 31 X -44 Y 30 X -39 Y 30 X -38 Y 30 X -42 Y 31 X -60 Y 30 X -55 Y 30 X -65 Y 30 X -71 Y 31 X -70 Y 30 X -9 Y 151 X s 1 0 0 c 2041 142 m 1078 Y s 1989 142 m 52 X s 2015 177 m 26
 X s 2015 213 m 26 X s 2015 249 m 26 X s 2015 285 m 26 X s 1989 320 m 52 X s 2015 356 m 26 X s 2015 392 m 26 X s 2015 428 m 26 X s 2015 463 m 26 X s 1989 499 m 52 X s 2015 535 m 26 X s 2015 571 m 26 X s 2015 606 m 26 X s 2015 642 m 26 X s 1989 678 m
 52 X s 2015 714 m 26 X s 2015 749 m 26 X s 2015 785 m 26 X s 2015 821 m 26 X s 1989 857 m 52 X s 2015 892 m 26 X s 2015 928 m 26 X s 2015 964 m 26 X s 2015 1000 m 26 X s 1989 1035 m 52 X s 2015 1071 m 26 X s 2015 1107 m 26 X s 2015 1143 m 26 X s
 2015 1178 m 26 X s 1989 1214 m 52 X s 1989 1214 m 52 X s black
 gsave  2268 1415 0 0 C 2051 122 t 0 r /Helvetica-Bold findfont 53.2685 sf 0 0 m (0) show NC gr 
 gsave  2268 1415 0 0 C 2051 301 t 0 r /Helvetica-Bold findfont 53.2685 sf 0 0 m (5000) show NC gr 
 gsave  2268 1415 0 0 C 2051 479 t 0 r /Helvetica-Bold findfont 53.2685 sf 0 0 m (10000) show NC gr 
 gsave  2268 1415 0 0 C 2051 658 t 0 r /Helvetica-Bold findfont 53.2685 sf 0 0 m (15000) show NC gr 
 gsave  2268 1415 0 0 C 2051 837 t 0 r /Helvetica-Bold findfont 53.2685 sf 0 0 m (20000) show NC gr 
 gsave  2268 1415 0 0 C 2051 1016 t 0 r /Helvetica-Bold findfont 53.2685 sf 0 0 m (25000) show NC gr 
 gsave  2268 1415 0 0 C 2051 1195 t 0 r /Helvetica-Bold findfont 53.2685 sf 0 0 m (30000) show NC gr  1 1 0 c 476 155 1565 1246 bf black
 gsave  476 155 1565 1246 C 1636 1339 t 0 r /Times-Bold findfont 58.3861 sf 0 0 m (SDP) show NC gr 
 gsave  476 155 1565 1246 C 1609 1256 t 0 r /Helvetica-Bold findfont 81.7405 sf 0 0 m (  0.137) show NC gr  1 1 1 c 1587 77 23 1331 bf black 23 1331 m 1587 X s 1610 1331 m 77 Y s 1610 1408 m -1587 X s 23 1408 m -77 Y s 1 1 1 c black
 gsave  2268 1415 0 0 C 84 1355 t 0 r /Helvetica-Bold findfont 41.8538 sf 0 0 m (Comparison of Mass\(1\) of pi- pi+ in channel Z0 => pi- pi+ nu_tau~ nu_tau ) show NC gr 
 gr  gr 
showpage
end
%%EOF
