%!PS-Adobe-2.0
%%Creator: dvips(k) 5.86 Copyright 1999 Radical Eye Software
%%Title: tester.dvi
%%Pages: 1
%%PageOrder: Ascend
%%BoundingBox: 0 0 596 842
%%DocumentFonts: Times-Roman Symbol Times-Bold Courier Times-Italic
%%EndComments
%DVIPSWebPage: (www.radicaleye.com)
%DVIPSCommandLine: dvips tester.dvi -o
%DVIPSParameters: dpi=600, compressed
%DVIPSSource:  TeX output 2003.01.20:1837
%%BeginProcSet: texc.pro
%!
/TeXDict 300 dict def TeXDict begin/N{def}def/B{bind def}N/S{exch}N/X{S
N}B/A{dup}B/TR{translate}N/isls false N/vsize 11 72 mul N/hsize 8.5 72
mul N/landplus90{false}def/@rigin{isls{[0 landplus90{1 -1}{-1 1}ifelse 0
0 0]concat}if 72 Resolution div 72 VResolution div neg scale isls{
landplus90{VResolution 72 div vsize mul 0 exch}{Resolution -72 div hsize
mul 0}ifelse TR}if Resolution VResolution vsize -72 div 1 add mul TR[
matrix currentmatrix{A A round sub abs 0.00001 lt{round}if}forall round
exch round exch]setmatrix}N/@landscape{/isls true N}B/@manualfeed{
statusdict/manualfeed true put}B/@copies{/#copies X}B/FMat[1 0 0 -1 0 0]
N/FBB[0 0 0 0]N/nn 0 N/IEn 0 N/ctr 0 N/df-tail{/nn 8 dict N nn begin
/FontType 3 N/FontMatrix fntrx N/FontBBox FBB N string/base X array
/BitMaps X/BuildChar{CharBuilder}N/Encoding IEn N end A{/foo setfont}2
array copy cvx N load 0 nn put/ctr 0 N[}B/sf 0 N/df{/sf 1 N/fntrx FMat N
df-tail}B/dfs{div/sf X/fntrx[sf 0 0 sf neg 0 0]N df-tail}B/E{pop nn A
definefont setfont}B/Cw{Cd A length 5 sub get}B/Ch{Cd A length 4 sub get
}B/Cx{128 Cd A length 3 sub get sub}B/Cy{Cd A length 2 sub get 127 sub}
B/Cdx{Cd A length 1 sub get}B/Ci{Cd A type/stringtype ne{ctr get/ctr ctr
1 add N}if}B/id 0 N/rw 0 N/rc 0 N/gp 0 N/cp 0 N/G 0 N/CharBuilder{save 3
1 roll S A/base get 2 index get S/BitMaps get S get/Cd X pop/ctr 0 N Cdx
0 Cx Cy Ch sub Cx Cw add Cy setcachedevice Cw Ch true[1 0 0 -1 -.1 Cx
sub Cy .1 sub]/id Ci N/rw Cw 7 add 8 idiv string N/rc 0 N/gp 0 N/cp 0 N{
rc 0 ne{rc 1 sub/rc X rw}{G}ifelse}imagemask restore}B/G{{id gp get/gp
gp 1 add N A 18 mod S 18 idiv pl S get exec}loop}B/adv{cp add/cp X}B
/chg{rw cp id gp 4 index getinterval putinterval A gp add/gp X adv}B/nd{
/cp 0 N rw exit}B/lsh{rw cp 2 copy get A 0 eq{pop 1}{A 255 eq{pop 254}{
A A add 255 and S 1 and or}ifelse}ifelse put 1 adv}B/rsh{rw cp 2 copy
get A 0 eq{pop 128}{A 255 eq{pop 127}{A 2 idiv S 128 and or}ifelse}
ifelse put 1 adv}B/clr{rw cp 2 index string putinterval adv}B/set{rw cp
fillstr 0 4 index getinterval putinterval adv}B/fillstr 18 string 0 1 17
{2 copy 255 put pop}for N/pl[{adv 1 chg}{adv 1 chg nd}{1 add chg}{1 add
chg nd}{adv lsh}{adv lsh nd}{adv rsh}{adv rsh nd}{1 add adv}{/rc X nd}{
1 add set}{1 add clr}{adv 2 chg}{adv 2 chg nd}{pop nd}]A{bind pop}
forall N/D{/cc X A type/stringtype ne{]}if nn/base get cc ctr put nn
/BitMaps get S ctr S sf 1 ne{A A length 1 sub A 2 index S get sf div put
}if put/ctr ctr 1 add N}B/I{cc 1 add D}B/bop{userdict/bop-hook known{
bop-hook}if/SI save N @rigin 0 0 moveto/V matrix currentmatrix A 1 get A
mul exch 0 get A mul add .99 lt{/QV}{/RV}ifelse load def pop pop}N/eop{
SI restore userdict/eop-hook known{eop-hook}if showpage}N/@start{
userdict/start-hook known{start-hook}if pop/VResolution X/Resolution X
1000 div/DVImag X/IEn 256 array N 2 string 0 1 255{IEn S A 360 add 36 4
index cvrs cvn put}for pop 65781.76 div/vsize X 65781.76 div/hsize X}N
/p{show}N/RMat[1 0 0 -1 0 0]N/BDot 260 string N/Rx 0 N/Ry 0 N/V{}B/RV/v{
/Ry X/Rx X V}B statusdict begin/product where{pop false[(Display)(NeXT)
(LaserWriter 16/600)]{A length product length le{A length product exch 0
exch getinterval eq{pop true exit}if}{pop}ifelse}forall}{false}ifelse
end{{gsave TR -.1 .1 TR 1 1 scale Rx Ry false RMat{BDot}imagemask
grestore}}{{gsave TR -.1 .1 TR Rx Ry scale 1 1 false RMat{BDot}
imagemask grestore}}ifelse B/QV{gsave newpath transform round exch round
exch itransform moveto Rx 0 rlineto 0 Ry neg rlineto Rx neg 0 rlineto
fill grestore}B/a{moveto}B/delta 0 N/tail{A/delta X 0 rmoveto}B/M{S p
delta add tail}B/b{S p tail}B/c{-4 M}B/d{-3 M}B/e{-2 M}B/f{-1 M}B/g{0 M}
B/h{1 M}B/i{2 M}B/j{3 M}B/k{4 M}B/w{0 rmoveto}B/l{p -4 w}B/m{p -3 w}B/n{
p -2 w}B/o{p -1 w}B/q{p 1 w}B/r{p 2 w}B/s{p 3 w}B/t{p 4 w}B/x{0 S
rmoveto}B/y{3 2 roll p a}B/bos{/SS save N}B/eos{SS restore}B end

%%EndProcSet
%%BeginProcSet: 8r.enc
% @@psencodingfile@{
%   author = "S. Rahtz, P. MacKay, Alan Jeffrey, B. Horn, K. Berry",
%   version = "0.6",
%   date = "22 June 1996",
%   filename = "8r.enc",
%   email = "kb@@mail.tug.org",
%   address = "135 Center Hill Rd. // Plymouth, MA 02360",
%   codetable = "ISO/ASCII",
%   checksum = "119     662    4424",
%   docstring = "Encoding for TrueType or Type 1 fonts to be used with TeX."
% @}
% 
% Idea is to have all the characters normally included in Type 1 fonts
% available for typesetting. This is effectively the characters in Adobe
% Standard Encoding + ISO Latin 1 + extra characters from Lucida.
% 
% Character code assignments were made as follows:
% 
% (1) the Windows ANSI characters are almost all in their Windows ANSI
% positions, because some Windows users cannot easily reencode the
% fonts, and it makes no difference on other systems. The only Windows
% ANSI characters not available are those that make no sense for
% typesetting -- rubout (127 decimal), nobreakspace (160), softhyphen
% (173). quotesingle and grave are moved just because it's such an
% irritation not having them in TeX positions.
% 
% (2) Remaining characters are assigned arbitrarily to the lower part
% of the range, avoiding 0, 10 and 13 in case we meet dumb software.
% 
% (3) Y&Y Lucida Bright includes some extra text characters; in the
% hopes that other PostScript fonts, perhaps created for public
% consumption, will include them, they are included starting at 0x12.
% 
% (4) Remaining positions left undefined are for use in (hopefully)
% upward-compatible revisions, if someday more characters are generally
% available.
% 
% (5) hyphen appears twice for compatibility with both ASCII and Windows.
% 
/TeXBase1Encoding [
% 0x00 (encoded characters from Adobe Standard not in Windows 3.1)
  /.notdef /dotaccent /fi /fl
  /fraction /hungarumlaut /Lslash /lslash
  /ogonek /ring /.notdef
  /breve /minus /.notdef 
% These are the only two remaining unencoded characters, so may as
% well include them.
  /Zcaron /zcaron 
% 0x10
 /caron /dotlessi 
% (unusual TeX characters available in, e.g., Lucida Bright)
 /dotlessj /ff /ffi /ffl 
 /.notdef /.notdef /.notdef /.notdef
 /.notdef /.notdef /.notdef /.notdef
 % very contentious; it's so painful not having quoteleft and quoteright
 % at 96 and 145 that we move the things normally found there down to here.
 /grave /quotesingle 
% 0x20 (ASCII begins)
 /space /exclam /quotedbl /numbersign
 /dollar /percent /ampersand /quoteright
 /parenleft /parenright /asterisk /plus /comma /hyphen /period /slash
% 0x30
 /zero /one /two /three /four /five /six /seven
 /eight /nine /colon /semicolon /less /equal /greater /question
% 0x40
 /at /A /B /C /D /E /F /G /H /I /J /K /L /M /N /O
% 0x50
 /P /Q /R /S /T /U /V /W
 /X /Y /Z /bracketleft /backslash /bracketright /asciicircum /underscore
% 0x60
 /quoteleft /a /b /c /d /e /f /g /h /i /j /k /l /m /n /o
% 0x70
 /p /q /r /s /t /u /v /w
 /x /y /z /braceleft /bar /braceright /asciitilde
 /.notdef % rubout; ASCII ends
% 0x80
 /.notdef /.notdef /quotesinglbase /florin
 /quotedblbase /ellipsis /dagger /daggerdbl
 /circumflex /perthousand /Scaron /guilsinglleft
 /OE /.notdef /.notdef /.notdef
% 0x90
 /.notdef /.notdef /.notdef /quotedblleft
 /quotedblright /bullet /endash /emdash
 /tilde /trademark /scaron /guilsinglright
 /oe /.notdef /.notdef /Ydieresis
% 0xA0
 /.notdef % nobreakspace
 /exclamdown /cent /sterling
 /currency /yen /brokenbar /section
 /dieresis /copyright /ordfeminine /guillemotleft
 /logicalnot
 /hyphen % Y&Y (also at 45); Windows' softhyphen
 /registered
 /macron
% 0xD0
 /degree /plusminus /twosuperior /threesuperior
 /acute /mu /paragraph /periodcentered
 /cedilla /onesuperior /ordmasculine /guillemotright
 /onequarter /onehalf /threequarters /questiondown
% 0xC0
 /Agrave /Aacute /Acircumflex /Atilde /Adieresis /Aring /AE /Ccedilla
 /Egrave /Eacute /Ecircumflex /Edieresis
 /Igrave /Iacute /Icircumflex /Idieresis
% 0xD0
 /Eth /Ntilde /Ograve /Oacute
 /Ocircumflex /Otilde /Odieresis /multiply
 /Oslash /Ugrave /Uacute /Ucircumflex
 /Udieresis /Yacute /Thorn /germandbls
% 0xE0
 /agrave /aacute /acircumflex /atilde
 /adieresis /aring /ae /ccedilla
 /egrave /eacute /ecircumflex /edieresis
 /igrave /iacute /icircumflex /idieresis
% 0xF0
 /eth /ntilde /ograve /oacute
 /ocircumflex /otilde /odieresis /divide
 /oslash /ugrave /uacute /ucircumflex
 /udieresis /yacute /thorn /ydieresis
] def

%%EndProcSet
%%BeginProcSet: texps.pro
%!
TeXDict begin/rf{findfont dup length 1 add dict begin{1 index/FID ne 2
index/UniqueID ne and{def}{pop pop}ifelse}forall[1 index 0 6 -1 roll
exec 0 exch 5 -1 roll VResolution Resolution div mul neg 0 0]/Metrics
exch def dict begin Encoding{exch dup type/integertype ne{pop pop 1 sub
dup 0 le{pop}{[}ifelse}{FontMatrix 0 get div Metrics 0 get div def}
ifelse}forall Metrics/Metrics currentdict end def[2 index currentdict
end definefont 3 -1 roll makefont/setfont cvx]cvx def}def/ObliqueSlant{
dup sin S cos div neg}B/SlantFont{4 index mul add}def/ExtendFont{3 -1
roll mul exch}def/ReEncodeFont{CharStrings rcheck{/Encoding false def
dup[exch{dup CharStrings exch known not{pop/.notdef/Encoding true def}
if}forall Encoding{]exch pop}{cleartomark}ifelse}if/Encoding exch def}
def end

%%EndProcSet
%%BeginProcSet: special.pro
%!
TeXDict begin/SDict 200 dict N SDict begin/@SpecialDefaults{/hs 612 N
/vs 792 N/ho 0 N/vo 0 N/hsc 1 N/vsc 1 N/ang 0 N/CLIP 0 N/rwiSeen false N
/rhiSeen false N/letter{}N/note{}N/a4{}N/legal{}N}B/@scaleunit 100 N
/@hscale{@scaleunit div/hsc X}B/@vscale{@scaleunit div/vsc X}B/@hsize{
/hs X/CLIP 1 N}B/@vsize{/vs X/CLIP 1 N}B/@clip{/CLIP 2 N}B/@hoffset{/ho
X}B/@voffset{/vo X}B/@angle{/ang X}B/@rwi{10 div/rwi X/rwiSeen true N}B
/@rhi{10 div/rhi X/rhiSeen true N}B/@llx{/llx X}B/@lly{/lly X}B/@urx{
/urx X}B/@ury{/ury X}B/magscale true def end/@MacSetUp{userdict/md known
{userdict/md get type/dicttype eq{userdict begin md length 10 add md
maxlength ge{/md md dup length 20 add dict copy def}if end md begin
/letter{}N/note{}N/legal{}N/od{txpose 1 0 mtx defaultmatrix dtransform S
atan/pa X newpath clippath mark{transform{itransform moveto}}{transform{
itransform lineto}}{6 -2 roll transform 6 -2 roll transform 6 -2 roll
transform{itransform 6 2 roll itransform 6 2 roll itransform 6 2 roll
curveto}}{{closepath}}pathforall newpath counttomark array astore/gc xdf
pop ct 39 0 put 10 fz 0 fs 2 F/|______Courier fnt invertflag{PaintBlack}
if}N/txpose{pxs pys scale ppr aload pop por{noflips{pop S neg S TR pop 1
-1 scale}if xflip yflip and{pop S neg S TR 180 rotate 1 -1 scale ppr 3
get ppr 1 get neg sub neg ppr 2 get ppr 0 get neg sub neg TR}if xflip
yflip not and{pop S neg S TR pop 180 rotate ppr 3 get ppr 1 get neg sub
neg 0 TR}if yflip xflip not and{ppr 1 get neg ppr 0 get neg TR}if}{
noflips{TR pop pop 270 rotate 1 -1 scale}if xflip yflip and{TR pop pop
90 rotate 1 -1 scale ppr 3 get ppr 1 get neg sub neg ppr 2 get ppr 0 get
neg sub neg TR}if xflip yflip not and{TR pop pop 90 rotate ppr 3 get ppr
1 get neg sub neg 0 TR}if yflip xflip not and{TR pop pop 270 rotate ppr
2 get ppr 0 get neg sub neg 0 S TR}if}ifelse scaleby96{ppr aload pop 4
-1 roll add 2 div 3 1 roll add 2 div 2 copy TR .96 dup scale neg S neg S
TR}if}N/cp{pop pop showpage pm restore}N end}if}if}N/normalscale{
Resolution 72 div VResolution 72 div neg scale magscale{DVImag dup scale
}if 0 setgray}N/psfts{S 65781.76 div N}N/startTexFig{/psf$SavedState
save N userdict maxlength dict begin/magscale true def normalscale
currentpoint TR/psf$ury psfts/psf$urx psfts/psf$lly psfts/psf$llx psfts
/psf$y psfts/psf$x psfts currentpoint/psf$cy X/psf$cx X/psf$sx psf$x
psf$urx psf$llx sub div N/psf$sy psf$y psf$ury psf$lly sub div N psf$sx
psf$sy scale psf$cx psf$sx div psf$llx sub psf$cy psf$sy div psf$ury sub
TR/showpage{}N/erasepage{}N/copypage{}N/p 3 def @MacSetUp}N/doclip{
psf$llx psf$lly psf$urx psf$ury currentpoint 6 2 roll newpath 4 copy 4 2
roll moveto 6 -1 roll S lineto S lineto S lineto closepath clip newpath
moveto}N/endTexFig{end psf$SavedState restore}N/@beginspecial{SDict
begin/SpecialSave save N gsave normalscale currentpoint TR
@SpecialDefaults count/ocount X/dcount countdictstack N}N/@setspecial{
CLIP 1 eq{newpath 0 0 moveto hs 0 rlineto 0 vs rlineto hs neg 0 rlineto
closepath clip}if ho vo TR hsc vsc scale ang rotate rwiSeen{rwi urx llx
sub div rhiSeen{rhi ury lly sub div}{dup}ifelse scale llx neg lly neg TR
}{rhiSeen{rhi ury lly sub div dup scale llx neg lly neg TR}if}ifelse
CLIP 2 eq{newpath llx lly moveto urx lly lineto urx ury lineto llx ury
lineto closepath clip}if/showpage{}N/erasepage{}N/copypage{}N newpath}N
/@endspecial{count ocount sub{pop}repeat countdictstack dcount sub{end}
repeat grestore SpecialSave restore end}N/@defspecial{SDict begin}N
/@fedspecial{end}B/li{lineto}B/rl{rlineto}B/rc{rcurveto}B/np{/SaveX
currentpoint/SaveY X N 1 setlinecap newpath}N/st{stroke SaveX SaveY
moveto}N/fil{fill SaveX SaveY moveto}N/ellipse{/endangle X/startangle X
/yrad X/xrad X/savematrix matrix currentmatrix N TR xrad yrad scale 0 0
1 startangle endangle arc savematrix setmatrix}N end

%%EndProcSet
%%BeginProcSet: color.pro
%!
TeXDict begin/setcmykcolor where{pop}{/setcmykcolor{dup 10 eq{pop
setrgbcolor}{1 sub 4 1 roll 3{3 index add neg dup 0 lt{pop 0}if 3 1 roll
}repeat setrgbcolor pop}ifelse}B}ifelse/TeXcolorcmyk{setcmykcolor}def
/TeXcolorrgb{setrgbcolor}def/TeXcolorgrey{setgray}def/TeXcolorgray{
setgray}def/TeXcolorhsb{sethsbcolor}def/currentcmykcolor where{pop}{
/currentcmykcolor{currentrgbcolor 10}B}ifelse/DC{exch dup userdict exch
known{pop pop}{X}ifelse}B/GreenYellow{0.15 0 0.69 0 setcmykcolor}DC
/Yellow{0 0 1 0 setcmykcolor}DC/Goldenrod{0 0.10 0.84 0 setcmykcolor}DC
/Dandelion{0 0.29 0.84 0 setcmykcolor}DC/Apricot{0 0.32 0.52 0
setcmykcolor}DC/Peach{0 0.50 0.70 0 setcmykcolor}DC/Melon{0 0.46 0.50 0
setcmykcolor}DC/YellowOrange{0 0.42 1 0 setcmykcolor}DC/Orange{0 0.61
0.87 0 setcmykcolor}DC/BurntOrange{0 0.51 1 0 setcmykcolor}DC
/Bittersweet{0 0.75 1 0.24 setcmykcolor}DC/RedOrange{0 0.77 0.87 0
setcmykcolor}DC/Mahogany{0 0.85 0.87 0.35 setcmykcolor}DC/Maroon{0 0.87
0.68 0.32 setcmykcolor}DC/BrickRed{0 0.89 0.94 0.28 setcmykcolor}DC/Red{
0 1 1 0 setcmykcolor}DC/OrangeRed{0 1 0.50 0 setcmykcolor}DC/RubineRed{
0 1 0.13 0 setcmykcolor}DC/WildStrawberry{0 0.96 0.39 0 setcmykcolor}DC
/Salmon{0 0.53 0.38 0 setcmykcolor}DC/CarnationPink{0 0.63 0 0
setcmykcolor}DC/Magenta{0 1 0 0 setcmykcolor}DC/VioletRed{0 0.81 0 0
setcmykcolor}DC/Rhodamine{0 0.82 0 0 setcmykcolor}DC/Mulberry{0.34 0.90
0 0.02 setcmykcolor}DC/RedViolet{0.07 0.90 0 0.34 setcmykcolor}DC
/Fuchsia{0.47 0.91 0 0.08 setcmykcolor}DC/Lavender{0 0.48 0 0
setcmykcolor}DC/Thistle{0.12 0.59 0 0 setcmykcolor}DC/Orchid{0.32 0.64 0
0 setcmykcolor}DC/DarkOrchid{0.40 0.80 0.20 0 setcmykcolor}DC/Purple{
0.45 0.86 0 0 setcmykcolor}DC/Plum{0.50 1 0 0 setcmykcolor}DC/Violet{
0.79 0.88 0 0 setcmykcolor}DC/RoyalPurple{0.75 0.90 0 0 setcmykcolor}DC
/BlueViolet{0.86 0.91 0 0.04 setcmykcolor}DC/Periwinkle{0.57 0.55 0 0
setcmykcolor}DC/CadetBlue{0.62 0.57 0.23 0 setcmykcolor}DC
/CornflowerBlue{0.65 0.13 0 0 setcmykcolor}DC/MidnightBlue{0.98 0.13 0
0.43 setcmykcolor}DC/NavyBlue{0.94 0.54 0 0 setcmykcolor}DC/RoyalBlue{1
0.50 0 0 setcmykcolor}DC/Blue{1 1 0 0 setcmykcolor}DC/Cerulean{0.94 0.11
0 0 setcmykcolor}DC/Cyan{1 0 0 0 setcmykcolor}DC/ProcessBlue{0.96 0 0 0
setcmykcolor}DC/SkyBlue{0.62 0 0.12 0 setcmykcolor}DC/Turquoise{0.85 0
0.20 0 setcmykcolor}DC/TealBlue{0.86 0 0.34 0.02 setcmykcolor}DC
/Aquamarine{0.82 0 0.30 0 setcmykcolor}DC/BlueGreen{0.85 0 0.33 0
setcmykcolor}DC/Emerald{1 0 0.50 0 setcmykcolor}DC/JungleGreen{0.99 0
0.52 0 setcmykcolor}DC/SeaGreen{0.69 0 0.50 0 setcmykcolor}DC/Green{1 0
1 0 setcmykcolor}DC/ForestGreen{0.91 0 0.88 0.12 setcmykcolor}DC
/PineGreen{0.92 0 0.59 0.25 setcmykcolor}DC/LimeGreen{0.50 0 1 0
setcmykcolor}DC/YellowGreen{0.44 0 0.74 0 setcmykcolor}DC/SpringGreen{
0.26 0 0.76 0 setcmykcolor}DC/OliveGreen{0.64 0 0.95 0.40 setcmykcolor}
DC/RawSienna{0 0.72 1 0.45 setcmykcolor}DC/Sepia{0 0.83 1 0.70
setcmykcolor}DC/Brown{0 0.81 1 0.60 setcmykcolor}DC/Tan{0.14 0.42 0.56 0
setcmykcolor}DC/Gray{0 0 0 0.50 setcmykcolor}DC/Black{0 0 0 1
setcmykcolor}DC/White{0 0 0 0 setcmykcolor}DC end

%%EndProcSet
TeXDict begin 39158280 55380996 1000 600 600 (tester.dvi)
@start
%DVIPSBitmapFont: Fa cmex10 14.4 1
/Fa 1 102 df<DA3F801502902601FFF01507010F01FEED0F80496DED3F00017F02C014
7C90B600F0495A2603FE0001FCEB07F0D807F0903A1FFF803FE0D80FC0010790B5128048
C7000192C7FC007E6E6C13FC00F86F5B0070030713C00020DB00FEC8FC410E80D542>
101 D E
%EndDVIPSBitmapFont
%DVIPSBitmapFont: Fb cmr10 10.95 1
/Fb 1 44 df<1506150FB3A9007FB912E0BA12F0A26C18E0C8000FC9FCB3A915063C3C7B
B447>43 D E
%EndDVIPSBitmapFont
/Fc 74[45 79[40 17[45 6[51 76[{TeXBase1Encoding ReEncodeFont}4
90.9091 /Times-Italic rf
%DVIPSBitmapFont: Fd cmsy10 14.4 1
/Fd 1 34 df<1B1E1B1FA4881B0FA2881B07A2881B0388757EA2757E1C7EA288767E767E
767E89F403FC767E9938007F80777EF51FF0007FBE12FEC01280A36CF5FE00D0EA1FF0F5
3FC0535AE201FEC7FC525AF407F065525A525A52C8FC1C7EA264515AA2515A641B0764A2
1B0F64A21B1F99C9FCA41B1E693F79BC78>33 D E
%EndDVIPSBitmapFont
/Fe 207[45 48[{TeXBase1Encoding ReEncodeFont}1 90.9091
/Times-Roman rf /Ff 139[40 116[{}1 90.9091 /Symbol rf
%DVIPSBitmapFont: Fg cmsy10 10.95 1
/Fg 1 1 df<007FB812F8B912FCA26C17F83604789847>0 D E
%EndDVIPSBitmapFont
/Fh 74[60 79[53 25[80 75[{TeXBase1Encoding ReEncodeFont}3
119.552 /Times-Italic rf /Fi 139[52 3[66 1[62 5[72 49
103[{}5 119.552 /Symbol rf /Fj 134[42 10[46 1[23 3[46
2[37 1[37 1[42 28[60 60 8[28 42 42 42 42 42 42 42 42
42 42 48[{TeXBase1Encoding ReEncodeFont}20 83.022 /Times-Bold
rf
%DVIPSBitmapFont: Fk cmex10 10 1
/Fk 1 102 df<D90FC01410D93FF81438D9FFFC14F0000301FFEB01E03B07C07FC00780
3B0F001FF01F00003C903807FFFE48010113F800E06D13E00040EC1F802D0A80BB2E>
101 D E
%EndDVIPSBitmapFont
%DVIPSBitmapFont: Fl cmr10 7.39999 1
/Fl 1 44 df<141CB3B81280A3C7001CC8FCB329297DA330>43 D
E
%EndDVIPSBitmapFont
/Fm 74[31 79[27 17[31 6[34 76[{TeXBase1Encoding ReEncodeFont}4
61.4362 /Times-Italic rf /Fn 207[31 48[{TeXBase1Encoding ReEncodeFont}1
61.4362 /Times-Roman rf /Fo 139[27 116[{}1 61.4362 /Symbol
rf
%DVIPSBitmapFont: Fp cmsy10 7.39999 1
/Fp 1 1 df<B712F8A325037B9030>0 D E
%EndDVIPSBitmapFont
/Fq 74[42 79[37 25[55 75[{TeXBase1Encoding ReEncodeFont}3
83.022 /Times-Italic rf /Fr 139[36 3[46 1[43 5[50 34
103[{}5 83.022 /Symbol rf
%DVIPSBitmapFont: Fs cmsy10 10 3
/Fs 3 34 df<15301578B3A6007FB812F8B912FCA26C17F8C80078C8FCB3A3007FB812F8
B912FCA26C17F836367BB641>6 D<EB1FF0EBFFFE487F000714C04814E04814F04814F8
A24814FCA3B612FEA96C14FCA36C14F8A26C14F06C14E06C14C0000114006C5BEB1FF01F
1F7BA42A>15 D<181EA4181F84A285180785727EA2727E727E85197E85F11F80F10FC0F1
07F0007FBA12FCBCFCA26C19FCCCEA07F0F10FC0F11F80F13F00197E61614E5A4E5AA24E
5A61180F96C7FCA260181EA4482C7BAA53>33 D E
%EndDVIPSBitmapFont
/Ft 134[42 42 42 42 42 42 42 42 1[42 42 42 42 42 42 1[42
42 42 42 42 1[42 1[42 7[42 3[42 42 42 42 1[42 2[42 6[42
42 1[42 11[42 4[42 42 1[42 42 42 45[{
.85 ExtendFont TeXBase1Encoding ReEncodeFont}37 83.022
/Courier rf /Fu 133[37 42 42 1[42 42 23 32 28 1[42 42
42 65 23 2[23 42 42 28 37 42 37 42 37 7[60 60 1[60 60
51 46 55 1[46 60 60 74 51 2[28 60 60 46 51 60 55 55 60
3[47 2[23 42 42 42 42 42 42 42 42 42 42 1[21 1[21 2[28
28 2[69 1[42 32[46 2[{TeXBase1Encoding ReEncodeFont}62
83.022 /Times-Roman rf /Fv 134[60 3[66 40 47 53 2[60
66 100 33 3[66 60 40 53 66 53 1[60 14[86 11[73 1[86 86
8[40 60 60 60 60 60 60 60 60 60 60 1[30 46[{
TeXBase1Encoding ReEncodeFont}32 119.552 /Times-Bold
rf /Fw 133[44 50 1[72 1[50 28 39 33 2[50 50 78 28 50
1[28 50 50 1[44 1[44 50 44 6[61 2[94 2[61 3[55 5[39 2[72
19[50 50 1[50 3[25 44[{TeXBase1Encoding ReEncodeFont}29
99.6264 /Times-Roman rf
%DVIPSBitmapFont: Fx cmsy10 12 1
/Fx 1 1 df<007FB912E0BA12F0A26C18E03C04789A4D>0 D E
%EndDVIPSBitmapFont
/Fy 139[63 116[{}1 143.462 /Symbol rf /Fz 134[72 3[72
40 56 48 1[72 72 2[40 2[40 2[48 64 72 64 1[64 12[88 80
96 1[80 2[128 5[104 1[88 104 96 13[72 3[72 2[36 48 3[48
48 40[{TeXBase1Encoding ReEncodeFont}29 143.462 /Times-Roman
rf end
%%EndProlog
%%BeginSetup
%%Feature: *Resolution 600dpi
TeXDict begin
%%PaperSize: A4

%%EndSetup
%%Page: 2 1
2 1 bop Black Black 515 523 a Fv(F)m(ound)31 b(decay)f(modes:)p
515 807 2984 4 v 515 807 V 513 907 4 100 v 744 877 a
Fu(Decay)20 b(channel)p 1463 907 V 1463 907 V 450 w(Branching)e(Ratio)j
Fs(\006)f Fu(Rough)f(Errors)p 3009 907 V 270 w(Max.)25
b(shape)p 3496 907 V 513 1006 V 1463 1006 V 1 0 0 TeXcolorrgb
1633 976 a(Generator)19 b(#1)p Black 2236 1006 V 0 1 0
TeXcolorrgb 336 w(Generator)g(#2)p Black 3009 1006 V
228 w(dif.)25 b(param.)p 3496 1006 V 515 1010 2984 4
v 515 1030 V 513 1131 4 102 v 759 1101 a Fr(t)795 1071
y Fp(\000)866 1101 y Fs(!)19 b Fr(n)1011 1113 y Fo(t)1042
1101 y Fr(p)1088 1071 y Fn(0)1123 1101 y Fr(p)1169 1071
y Fp(\000)p 1463 1131 V 1 0 0 TeXcolorrgb 1515 1101 a
Fu(25.3683)e Fs(\006)j Fu(0.0159\045)p Black 2236 1131
V 0 1 0 TeXcolorrgb 98 w(25.3085)d Fs(\006)j Fu(0.0159\045)p
Black 3009 1131 V 156 w(0.04375)p 3496 1131 V 515 1134
2984 4 v 515 1154 V 513 1254 4 100 v 767 1224 a Fr(t)803
1194 y Fp(\000)874 1224 y Fs(!)e Fq(e)1012 1194 y Fp(\000)1078
1218 y Fk(e)1064 1224 y Fr(n)1107 1236 y Fm(e)1138 1224
y Fr(n)1181 1236 y Fo(t)p 1463 1254 V 1 0 0 TeXcolorrgb
1515 1224 a Fu(17.8479)f Fs(\006)j Fu(0.0134\045)p Black
2236 1254 V 0 1 0 TeXcolorrgb 98 w(18.1093)d Fs(\006)j
Fu(0.0135\045)p Black 3009 1254 V 156 w(0.00000)p 3496
1254 V 515 1257 2984 4 v 515 1277 V 513 1376 4 100 v
763 1347 a Fr(t)799 1316 y Fp(\000)869 1347 y Fs(!)f
Fq(\265)1013 1316 y Fp(\000)1080 1341 y Fk(e)1064 1347
y Fr(n)1107 1359 y Fm(\265)1142 1347 y Fr(n)1185 1359
y Fo(t)p 1463 1376 V 1 0 0 TeXcolorrgb 1515 1347 a Fu(17.3866)e
Fs(\006)j Fu(0.0132\045)p Black 2236 1376 V 0 1 0 TeXcolorrgb
98 w(17.6326)d Fs(\006)j Fu(0.0133\045)p Black 3009 1376
V 156 w(0.00000)p 3496 1376 V 515 1380 2984 4 v 515 1400
V 513 1499 4 100 v 800 1469 a Fr(t)836 1439 y Fp(\000)906
1469 y Fs(!)f Fr(n)1051 1481 y Fo(t)1082 1469 y Fr(p)1128
1439 y Fp(\000)p 1463 1499 V 1 0 0 TeXcolorrgb 1515 1469
a Fu(11.0768)e Fs(\006)j Fu(0.0105\045)p Black 2236 1499
V 0 1 0 TeXcolorrgb 98 w(11.1765)d Fs(\006)j Fu(0.0106\045)p
Black 3009 1499 V 156 w(0.00000)p 3496 1499 V 515 1503
2984 4 v 515 1523 V 513 1624 4 102 v 719 1594 a Fr(t)755
1564 y Fp(\000)826 1594 y Fs(!)f Fr(n)971 1606 y Fo(t)1002
1594 y Fr(p)1048 1564 y Fn(0)1082 1594 y Fr(p)1128 1564
y Fn(0)1163 1594 y Fr(p)1209 1564 y Fp(\000)p 1463 1624
V 1 0 0 TeXcolorrgb 1535 1594 a Fu(9.1865)f Fs(\006)j
Fu(0.0096\045)p Black 2236 1624 V 0 1 0 TeXcolorrgb 138
w(9.1171)d Fs(\006)j Fu(0.0095\045)p Black 3009 1624
V 176 w(0.09413)p 3496 1624 V 515 1627 2984 4 v 515 1647
V 513 1747 4 100 v 702 1717 a Fr(t)738 1687 y Fp(\000)809
1717 y Fs(!)d Fr(n)953 1729 y Fo(t)985 1717 y Fr(p)1031
1687 y Fl(+)1082 1717 y Fr(p)1128 1687 y Fp(\000)1180
1717 y Fr(p)1226 1687 y Fp(\000)p 1463 1747 V 1 0 0 TeXcolorrgb
1535 1717 a Fu(8.9837)g Fs(\006)j Fu(0.0095\045)p Black
2236 1747 V 0 1 0 TeXcolorrgb 138 w(8.8828)d Fs(\006)j
Fu(0.0094\045)p Black 3009 1747 V 176 w(0.09368)p 3496
1747 V 515 1750 2984 4 v 515 1770 V 513 1871 4 102 v
662 1841 a Fr(t)698 1811 y Fp(\000)769 1841 y Fs(!)d
Fr(n)913 1853 y Fo(t)945 1841 y Fr(p)991 1811 y Fn(0)1025
1841 y Fr(p)1071 1811 y Fl(+)1123 1841 y Fr(p)1169 1811
y Fp(\000)1220 1841 y Fr(p)1266 1811 y Fp(\000)p 1463
1871 V 1 0 0 TeXcolorrgb 1535 1841 a Fu(4.2973)g Fs(\006)j
Fu(0.0066\045)p Black 2236 1871 V 0 1 0 TeXcolorrgb 138
w(4.5319)d Fs(\006)j Fu(0.0067\045)p Black 3009 1871
V 176 w(0.30310)p 3496 1871 V 515 1874 2984 4 v 515 1894
V 513 1995 4 102 v 679 1965 a Fr(t)715 1935 y Fp(\000)786
1965 y Fs(!)d Fr(n)930 1977 y Fo(t)962 1965 y Fr(p)1008
1935 y Fn(0)1042 1965 y Fr(p)1088 1935 y Fn(0)1123 1965
y Fr(p)1169 1935 y Fn(0)1203 1965 y Fr(p)1249 1935 y
Fp(\000)p 1463 1995 V 1 0 0 TeXcolorrgb 1535 1965 a Fu(1.0765)g
Fs(\006)j Fu(0.0033\045)p Black 2236 1995 V 0 1 0 TeXcolorrgb
138 w(1.0090)d Fs(\006)j Fu(0.0032\045)p Black 3009 1995
V 176 w(0.00724)p 3496 1995 V 515 1999 2984 4 v 515 2019
V 513 2118 4 100 v 793 2088 a Fr(t)829 2058 y Fp(\000)899
2088 y Fs(!)e Fr(n)1044 2100 y Fo(t)1075 2088 y Fq(K)1135
2058 y Fp(\000)p 1463 2118 V 1 0 0 TeXcolorrgb 1535 2088
a Fu(0.7202)f Fs(\006)j Fu(0.0027\045)p Black 2236 2118
V 0 1 0 TeXcolorrgb 138 w(0.7138)d Fs(\006)j Fu(0.0027\045)p
Black 3009 2118 V 176 w(0.00000)p 3496 2118 V 515 2121
2984 4 v 515 2141 V 513 2243 4 102 v 622 2213 a Fr(t)658
2182 y Fp(\000)729 2213 y Fs(!)d Fr(n)873 2225 y Fo(t)904
2213 y Fr(p)950 2182 y Fn(0)985 2213 y Fr(p)1031 2182
y Fn(0)1065 2213 y Fr(p)1111 2182 y Fl(+)1163 2213 y
Fr(p)1209 2182 y Fp(\000)1260 2213 y Fr(p)1306 2182 y
Fp(\000)p 1463 2243 V 1 0 0 TeXcolorrgb 1535 2213 a Fu(0.4990)g
Fs(\006)j Fu(0.0022\045)p Black 2236 2243 V 0 1 0 TeXcolorrgb
138 w(0.0897)d Fs(\006)j Fu(0.0009\045)p Black 3009 2243
V 176 w(0.00000)p 3496 2243 V 515 2246 2984 4 v 515 2266
V 513 2367 4 102 v 752 2337 a Fr(t)788 2307 y Fp(\000)859
2337 y Fs(!)e Fr(n)1004 2349 y Fo(t)1035 2337 y Fr(p)1081
2307 y Fn(0)1115 2337 y Fq(K)1175 2307 y Fp(\000)p 1463
2367 V 1 0 0 TeXcolorrgb 1535 2337 a Fu(0.4785)f Fs(\006)j
Fu(0.0022\045)p Black 2236 2367 V 0 1 0 TeXcolorrgb 138
w(0.4617)d Fs(\006)j Fu(0.0021\045)p Black 3009 2367
V 176 w(0.00000)p 3496 2367 V 515 2370 2984 4 v 515 2390
V 513 2491 4 102 v 752 2461 a Fr(t)788 2431 y Fp(\000)859
2461 y Fs(!)e Fr(n)1004 2473 y Fo(t)1035 2461 y Fq(K)1095
2431 y Fn(0)1088 2485 y Fm(L)1130 2461 y Fr(p)1176 2431
y Fp(\000)p 1463 2491 V 1 0 0 TeXcolorrgb 1535 2461 a
Fu(0.4624)f Fs(\006)j Fu(0.0022\045)p Black 2236 2491
V 0 1 0 TeXcolorrgb 138 w(0.4444)d Fs(\006)j Fu(0.0021\045)p
Black 3009 2491 V 176 w(0.00000)p 3496 2491 V 515 2495
2984 4 v 515 2515 V 513 2616 4 102 v 752 2586 a Fr(t)788
2556 y Fp(\000)859 2586 y Fs(!)e Fr(n)1004 2598 y Fo(t)1035
2586 y Fr(p)1081 2556 y Fp(\000)1132 2586 y Fq(K)1192
2556 y Fn(0)1185 2611 y Fm(S)p 1463 2616 V 1 0 0 TeXcolorrgb
1535 2586 a Fu(0.4610)f Fs(\006)j Fu(0.0021\045)p Black
2236 2616 V 0 1 0 TeXcolorrgb 138 w(0.4449)d Fs(\006)j
Fu(0.0021\045)p Black 3009 2616 V 176 w(0.00000)p 3496
2616 V 515 2619 2984 4 v 515 2639 V 513 2739 4 100 v
695 2709 a Fr(t)731 2678 y Fp(\000)802 2709 y Fs(!)d
Fr(n)946 2721 y Fo(t)978 2709 y Fr(p)1024 2678 y Fl(+)1075
2709 y Fr(p)1121 2678 y Fp(\000)1173 2709 y Fq(K)1233
2678 y Fp(\000)p 1463 2739 V 1 0 0 TeXcolorrgb 1535 2709
a Fu(0.3902)g Fs(\006)j Fu(0.0020\045)p Black 2236 2739
V 0 1 0 TeXcolorrgb 138 w(0.5051)d Fs(\006)j Fu(0.0022\045)p
Black 3009 2739 V 176 w(0.52330)p 3496 2739 V 515 2742
2984 4 v 515 2762 V 513 2863 4 102 v 734 2833 a Fr(t)770
2803 y Fp(\000)841 2833 y Fs(!)e Fr(n)986 2845 y Fo(t)1017
2833 y Fr(p)1063 2803 y Fn(0)1098 2833 y Fr(p)1144 2803
y Fp(\000)1195 2833 y Fr(h)p 1463 2863 V 1 0 0 TeXcolorrgb
290 w Fu(0.1707)f Fs(\006)j Fu(0.0013\045)p Black 2236
2863 V 0 1 0 TeXcolorrgb 138 w(0.1696)d Fs(\006)j Fu(0.0013\045)p
Black 3009 2863 V 176 w(0.00000)p 3496 2863 V 515 2866
2984 4 v 515 2886 V 513 2986 4 100 v 688 2956 a Fr(t)724
2926 y Fp(\000)795 2956 y Fs(!)d Fr(n)939 2968 y Fo(t)971
2956 y Fr(p)1017 2926 y Fp(\000)1068 2956 y Fq(K)1128
2926 y Fl(+)1180 2956 y Fq(K)1240 2926 y Fp(\000)p 1463
2986 V 1 0 0 TeXcolorrgb 1535 2956 a Fu(0.1704)g Fs(\006)j
Fu(0.0013\045)p Black 2236 2986 V 0 1 0 TeXcolorrgb 138
w(0.1509)d Fs(\006)j Fu(0.0012\045)p Black 3009 2986
V 176 w(0.07360)p 3496 2986 V 515 2989 2984 4 v 515 3009
V 513 3110 4 102 v 712 3080 a Fr(t)748 3050 y Fp(\000)819
3080 y Fs(!)d Fr(n)963 3092 y Fo(t)995 3080 y Fr(p)1041
3050 y Fn(0)1075 3080 y Fq(K)1135 3050 y Fn(0)1128 3104
y Fm(L)1170 3080 y Fr(p)1216 3050 y Fp(\000)p 1463 3110
V 1 0 0 TeXcolorrgb 1535 3080 a Fu(0.1605)g Fs(\006)j
Fu(0.0013\045)p Black 2236 3110 V 0 1 0 TeXcolorrgb 138
w(0.2745)d Fs(\006)j Fu(0.0017\045)p Black 3009 3110
V 176 w(0.92850)p 3496 3110 V 515 3113 2984 4 v 515 3133
V 513 3234 4 102 v 712 3205 a Fr(t)748 3174 y Fp(\000)819
3205 y Fs(!)d Fr(n)963 3217 y Fo(t)995 3205 y Fr(p)1041
3174 y Fn(0)1075 3205 y Fr(p)1121 3174 y Fp(\000)1173
3205 y Fq(K)1233 3174 y Fn(0)1226 3230 y Fm(S)p 1463
3234 V 1 0 0 TeXcolorrgb 1535 3205 a Fu(0.1592)g Fs(\006)j
Fu(0.0013\045)p Black 2236 3234 V 0 1 0 TeXcolorrgb 138
w(0.2734)d Fs(\006)j Fu(0.0017\045)p Black 3009 3234
V 176 w(0.93657)p 3496 3234 V 515 3238 2984 4 v 515 3258
V 513 3359 4 102 v 742 3329 a Fr(t)778 3299 y Fp(\000)849
3329 y Fs(!)e Fr(n)994 3341 y Fo(t)1025 3329 y Fr(gp)1105
3299 y Fn(0)1140 3329 y Fr(p)1186 3299 y Fp(\000)p 1463
3359 V 1 0 0 TeXcolorrgb 1535 3329 a Fu(0.1559)f Fs(\006)j
Fu(0.0012\045)p Black 2236 3359 V 0 1 0 TeXcolorrgb 138
w(0.1303)d Fs(\006)j Fu(0.0011\045)p Black 3009 3359
V 176 w(0.00000)p 3496 3359 V 515 3362 2984 4 v 515 3382
V 513 3483 4 102 v 705 3453 a Fr(t)741 3423 y Fp(\000)812
3453 y Fs(!)d Fr(n)956 3465 y Fo(t)988 3453 y Fq(K)1048
3423 y Fn(0)1041 3477 y Fm(L)1082 3453 y Fr(p)1128 3423
y Fp(\000)1180 3453 y Fq(K)1240 3423 y Fn(0)1233 3479
y Fm(S)p 1463 3483 V 1 0 0 TeXcolorrgb 1535 3453 a Fu(0.1510)g
Fs(\006)j Fu(0.0012\045)p Black 2236 3483 V 0 1 0 TeXcolorrgb
138 w(0.0763)d Fs(\006)j Fu(0.0009\045)p Black 3009 3483
V 176 w(0.00270)p 3496 3483 V 515 3487 2984 4 v 515 3506
V 513 3608 4 102 v 745 3578 a Fr(t)781 3548 y Fp(\000)852
3578 y Fs(!)d Fr(n)996 3590 y Fo(t)1028 3578 y Fq(K)1088
3548 y Fn(0)1081 3602 y Fm(L)1123 3578 y Fq(K)1183 3548
y Fp(\000)p 1463 3608 V 1 0 0 TeXcolorrgb 1535 3578 a
Fu(0.1289)g Fs(\006)j Fu(0.0011\045)p Black 2236 3608
V 0 1 0 TeXcolorrgb 138 w(0.0508)d Fs(\006)j Fu(0.0007\045)p
Black 3009 3608 V 176 w(0.00000)p 3496 3608 V 515 3611
2984 4 v 515 3631 V 513 3732 4 102 v 745 3702 a Fr(t)781
3672 y Fp(\000)852 3702 y Fs(!)d Fr(n)996 3714 y Fo(t)1028
3702 y Fq(K)1088 3672 y Fn(0)1081 3727 y Fm(S)1123 3702
y Fq(K)1183 3672 y Fp(\000)p 1463 3732 V 1 0 0 TeXcolorrgb
1535 3702 a Fu(0.1287)g Fs(\006)j Fu(0.0011\045)p Black
2236 3732 V 0 1 0 TeXcolorrgb 138 w(0.0507)d Fs(\006)j
Fu(0.0007\045)p Black 3009 3732 V 176 w(0.00000)p 3496
3732 V 515 3735 2984 4 v 515 3755 V 513 3856 4 102 v
582 3826 a Fr(t)618 3796 y Fp(\000)688 3826 y Fs(!)e
Fr(n)833 3838 y Fo(t)864 3826 y Fr(p)910 3796 y Fn(0)945
3826 y Fr(p)991 3796 y Fn(0)1025 3826 y Fr(p)1071 3796
y Fn(0)1106 3826 y Fr(p)1152 3796 y Fl(+)1203 3826 y
Fr(p)1249 3796 y Fp(\000)1300 3826 y Fr(p)1346 3796 y
Fp(\000)p 1463 3856 V 1 0 0 TeXcolorrgb 1535 3826 a Fu(0.1094)f
Fs(\006)j Fu(0.0010\045)p Black 2236 3856 V 0 1 0 TeXcolorrgb
138 w(0.0506)d Fs(\006)j Fu(0.0007\045)p Black 3009 3856
V 176 w(0.00000)p 3496 3856 V 515 3860 2984 4 v 515 3880
V 513 3979 4 100 v 605 3949 a Fr(t)641 3919 y Fp(\000)712
3949 y Fs(!)d Fr(n)856 3961 y Fo(t)887 3949 y Fr(p)933
3919 y Fl(+)985 3949 y Fr(p)1031 3919 y Fl(+)1082 3949
y Fr(p)1128 3919 y Fp(\000)1180 3949 y Fr(p)1226 3919
y Fp(\000)1277 3949 y Fr(p)1323 3919 y Fp(\000)p 1463
3979 V 1 0 0 TeXcolorrgb 1535 3949 a Fu(0.0803)g Fs(\006)j
Fu(0.0009\045)p Black 2236 3979 V 0 1 0 TeXcolorrgb 138
w(0.0401)d Fs(\006)j Fu(0.0006\045)p Black 3009 3979
V 176 w(0.00000)p 3496 3979 V 515 3983 2984 4 v 515 4002
V 513 4104 4 102 v 712 4074 a Fr(t)748 4044 y Fp(\000)819
4074 y Fs(!)d Fr(n)963 4086 y Fo(t)995 4074 y Fr(p)1041
4044 y Fn(0)1075 4074 y Fr(p)1121 4044 y Fn(0)1156 4074
y Fq(K)1216 4044 y Fp(\000)p 1463 4104 V 1 0 0 TeXcolorrgb
1535 4074 a Fu(0.0792)g Fs(\006)j Fu(0.0009\045)p Black
2236 4104 V 0 1 0 TeXcolorrgb 138 w(0.0504)d Fs(\006)j
Fu(0.0007\045)p Black 3009 4104 V 176 w(0.29190)p 3496
4104 V 515 4107 2984 4 v 515 4127 V 513 4228 4 102 v
705 4198 a Fr(t)741 4168 y Fp(\000)812 4198 y Fs(!)d
Fr(n)956 4210 y Fo(t)988 4198 y Fq(K)1048 4168 y Fn(0)1041
4222 y Fm(L)1082 4198 y Fq(K)1142 4168 y Fn(0)1135 4222
y Fm(L)1177 4198 y Fr(p)1223 4168 y Fp(\000)p 1463 4228
V 1 0 0 TeXcolorrgb 1535 4198 a Fu(0.0760)g Fs(\006)j
Fu(0.0009\045)p Black 2236 4228 V 0 1 0 TeXcolorrgb 138
w(0.0372)d Fs(\006)j Fu(0.0006\045)p Black 3009 4228
V 176 w(0.00854)p 3496 4228 V 515 4231 2984 4 v 515 4251
V 513 4352 4 102 v 705 4322 a Fr(t)741 4292 y Fp(\000)812
4322 y Fs(!)d Fr(n)956 4334 y Fo(t)988 4322 y Fr(p)1034
4292 y Fp(\000)1085 4322 y Fq(K)1145 4292 y Fn(0)1138
4348 y Fm(S)1180 4322 y Fq(K)1240 4292 y Fn(0)1233 4348
y Fm(S)p 1463 4352 V 1 0 0 TeXcolorrgb 1535 4322 a Fu(0.0756)g
Fs(\006)j Fu(0.0009\045)p Black 2236 4352 V 0 1 0 TeXcolorrgb
138 w(0.0378)d Fs(\006)j Fu(0.0006\045)p Black 3009 4352
V 176 w(0.01189)p 3496 4352 V 515 4356 2984 4 v 515 4376
V 513 4477 4 102 v 705 4447 a Fr(t)741 4417 y Fp(\000)812
4447 y Fs(!)d Fr(n)956 4459 y Fo(t)988 4447 y Fr(p)1034
4417 y Fn(0)1068 4447 y Fq(K)1128 4417 y Fn(0)1121 4471
y Fm(L)1163 4447 y Fq(K)1223 4417 y Fp(\000)p 1463 4477
V 1 0 0 TeXcolorrgb 1535 4447 a Fu(0.0507)g Fs(\006)j
Fu(0.0007\045)p Black 2236 4477 V 0 1 0 TeXcolorrgb 138
w(0.0763)d Fs(\006)j Fu(0.0009\045)p Black 3009 4477
V 176 w(0.85321)p 3496 4477 V 515 4480 2984 4 v 515 4500
V 513 4601 4 102 v 705 4571 a Fr(t)741 4541 y Fp(\000)812
4571 y Fs(!)d Fr(n)956 4583 y Fo(t)988 4571 y Fr(p)1034
4541 y Fn(0)1068 4571 y Fq(K)1128 4541 y Fn(0)1121 4597
y Fm(S)1163 4571 y Fq(K)1223 4541 y Fp(\000)p 1463 4601
V 1 0 0 TeXcolorrgb 1535 4571 a Fu(0.0498)g Fs(\006)j
Fu(0.0007\045)p Black 2236 4601 V 0 1 0 TeXcolorrgb 138
w(0.0746)d Fs(\006)j Fu(0.0009\045)p Black 3009 4601
V 176 w(0.87506)p 3496 4601 V 515 4604 2984 4 v 515 4624
V 513 4725 4 102 v 565 4696 a Fr(t)601 4665 y Fp(\000)671
4696 y Fs(!)e Fr(n)816 4708 y Fo(t)847 4696 y Fr(p)893
4665 y Fn(0)928 4696 y Fr(p)974 4665 y Fl(+)1025 4696
y Fr(p)1071 4665 y Fl(+)1123 4696 y Fr(p)1169 4665 y
Fp(\000)1220 4696 y Fr(p)1266 4665 y Fp(\000)1317 4696
y Fr(p)1363 4665 y Fp(\000)p 1463 4725 V 1 0 0 TeXcolorrgb
1535 4696 a Fu(0.0186)f Fs(\006)j Fu(0.0004\045)p Black
2236 4725 V 0 1 0 TeXcolorrgb 138 w(0.0293)d Fs(\006)j
Fu(0.0005\045)p Black 3009 4725 V 176 w(0.00000)p 3496
4725 V 515 4729 2984 4 v 515 4729 V 515 4975 a(Similarity)f(coef)n
(\002cients:)k(T1=1.881148)16 b(,)21 b(T2=4.510389)p
Black 1926 5255 a(2)p Black eop
%%Trailer
end
userdict /end-hook known{end-hook}if
%%EOF
